\begin{thebibliography}{1}
\providecommand{\url}[1]{\texttt{#1}}
\providecommand{\urlprefix}{URL }

\bibitem{ludogame}
Dohnbæk, R.: Ludo help for tools of ai (2020),
  \url{https://github.com/RasmusDonbaek/Ludo-help-for-tools-of-AI}, [Online;
  accessed 13-May-2020]

\bibitem{1999intro2ga}
Mitchell, M.: An Introduction to Genetic Algorithms. The MIT Press, 5 edn.
  (1999)

\bibitem{2005nn}
Nissen, S.: Neural networks made simple  (2005)

\bibitem{fann_doc}
Nissen, S.: Fann - fast artificial neural network (2020),
  \url{http://leenissen.dk/fann/wp/}, [Online; accessed 13-May-2020]

\bibitem{Riedmiller93adirect}
Riedmiller, M., Braun, H.: A direct adaptive method for faster backpropagation
  learning: The rprop algorithm pp. 586--591 (1993)

\bibitem{1997init}
Thimm, G., Fiesler, E.: High-order and multilayer perceptron initialization.
  IEEE TRANSACTIONS ON NEURAL NETWORKS  Vol. 8(No. 2) (March 1997)

\bibitem{tinge2020}
Tinggaard, C.: Learning to play ludo with q-learning and genetic algorithm
  (2020)

\end{thebibliography}
