1, 0.298997, 0.01
2, 0.216589, 0.01
3, 0.194931, 0.01
4, 0.187724, 0.01
5, 0.183951, 0.01
6, 0.181285, 0.01
7, 0.179161, 0.01
8, 0.177377, 0.01
9, 0.175834, 0.01
10, 0.174469, 0.01
11, 0.173242, 0.01
12, 0.172123, 0.01
13, 0.171091, 0.01
14, 0.170128, 0.01
15, 0.169222, 0.01
16, 0.168361, 0.01
17, 0.167536, 0.01
18, 0.166741, 0.01
19, 0.165969, 0.01
20, 0.165214, 0.01
21, 0.164474, 0.01
22, 0.163742, 0.01
23, 0.163015, 0.01
24, 0.162292, 0.01
25, 0.161567, 0.01
26, 0.16084, 0.01
27, 0.160107, 0.01
28, 0.159366, 0.01
29, 0.158616, 0.01
30, 0.157853, 0.01
31, 0.157075, 0.01
32, 0.156281, 0.01
33, 0.15547, 0.01
34, 0.154641, 0.01
35, 0.153792, 0.01
36, 0.152923, 0.01
37, 0.152034, 0.01
38, 0.151125, 0.01
39, 0.150197, 0.01
40, 0.149252, 0.01
41, 0.148291, 0.01
42, 0.147316, 0.01
43, 0.14633, 0.01
44, 0.145337, 0.01
45, 0.144341, 0.01
46, 0.143345, 0.01
47, 0.142354, 0.01
48, 0.141371, 0.01
49, 0.1404, 0.01
50, 0.139443, 0.01
51, 0.138502, 0.01
52, 0.13758, 0.01
53, 0.136674, 0.01
54, 0.135789, 0.01
55, 0.134921, 0.01
56, 0.134072, 0.01
57, 0.133241, 0.01
58, 0.132426, 0.01
59, 0.131628, 0.01
60, 0.130844, 0.01
61, 0.130075, 0.01
62, 0.12932, 0.01
63, 0.128577, 0.01
64, 0.127847, 0.01
65, 0.127128, 0.01
66, 0.12642, 0.01
67, 0.125723, 0.01
68, 0.125036, 0.01
69, 0.124359, 0.01
70, 0.12369, 0.01
71, 0.123031, 0.01
72, 0.122379, 0.01
73, 0.121738, 0.01
74, 0.121101, 0.01
75, 0.12048, 0.01
76, 0.119852, 0.01
77, 0.119269, 0.01
78, 0.118659, 0.01
79, 0.118327, 0.01
80, 0.118385, 0.01
81, 0.121872, 0.01
82, 0.133361, 0.01
83, 0.146002, 0.01
84, 0.145466, 0.01
85, 0.132679, 0.01
86, 0.128692, 0.01
87, 0.125416, 0.01
88, 0.124282, 0.01
89, 0.122201, 0.01
90, 0.122169, 0.01
91, 0.120773, 0.01
92, 0.121233, 0.01
93, 0.120029, 0.01
94, 0.120684, 0.01
95, 0.119438, 0.01
96, 0.120069, 0.01
97, 0.118758, 0.01
98, 0.119271, 0.01
99, 0.117957, 0.01
100, 0.118365, 0.01
101, 0.117081, 0.01
102, 0.117439, 0.01
103, 0.116181, 0.01
104, 0.116537, 0.01
105, 0.115283, 0.01
106, 0.115672, 0.01
107, 0.114397, 0.01
108, 0.114837, 0.01
109, 0.113524, 0.01
110, 0.114027, 0.01
111, 0.112666, 0.01
112, 0.113241, 0.01
113, 0.111826, 0.01
114, 0.112481, 0.01
115, 0.111007, 0.01
116, 0.11175, 0.01
117, 0.110215, 0.01
118, 0.11105, 0.01
119, 0.109448, 0.01
120, 0.11038, 0.01
121, 0.108705, 0.01
122, 0.109734, 0.01
123, 0.107985, 0.01
124, 0.10911, 0.01
125, 0.107286, 0.01
126, 0.108502, 0.01
127, 0.106608, 0.01
128, 0.107907, 0.01
129, 0.105949, 0.01
130, 0.10732, 0.01
131, 0.105307, 0.01
132, 0.106736, 0.01
133, 0.104681, 0.01
134, 0.106154, 0.01
135, 0.104068, 0.01
136, 0.105569, 0.01
137, 0.103467, 0.01
138, 0.104982, 0.01
139, 0.102876, 0.01
140, 0.104389, 0.01
141, 0.102294, 0.01
142, 0.103793, 0.01
143, 0.101719, 0.01
144, 0.10319, 0.01
145, 0.101151, 0.01
146, 0.102581, 0.01
147, 0.100586, 0.01
148, 0.101967, 0.01
149, 0.100025, 0.01
150, 0.101349, 0.01
151, 0.0994689, 0.01
152, 0.100729, 0.01
153, 0.0989176, 0.01
154, 0.100108, 0.01
155, 0.098372, 0.01
156, 0.0994891, 0.01
157, 0.0978333, 0.01
158, 0.0988728, 0.01
159, 0.0973026, 0.01
160, 0.0982601, 0.01
161, 0.0967806, 0.01
162, 0.097652, 0.01
163, 0.0962685, 0.01
164, 0.0970485, 0.01
165, 0.0957686, 0.01
166, 0.0964508, 0.01
167, 0.0952825, 0.01
168, 0.0958593, 0.01
169, 0.0948145, 0.01
170, 0.0952754, 0.01
171, 0.0943714, 0.01
172, 0.0947043, 0.01
173, 0.0939678, 0.01
174, 0.0941604, 0.01
175, 0.0936336, 0.01
176, 0.0936786, 0.01
177, 0.0934307, 0.01
178, 0.0933436, 0.01
179, 0.0934888, 0.01
180, 0.0933451, 0.01
181, 0.0940467, 0.01
182, 0.0940246, 0.01
183, 0.0953654, 0.01
184, 0.0956261, 0.01
185, 0.0971147, 0.01
186, 0.0973038, 0.01
187, 0.097683, 0.01
188, 0.097, 0.01
189, 0.0959861, 0.01
190, 0.094533, 0.01
191, 0.0932839, 0.01
192, 0.0917935, 0.01
193, 0.0910318, 0.01
194, 0.0898421, 0.01
195, 0.0896797, 0.01
196, 0.0888481, 0.01
197, 0.0892258, 0.01
198, 0.0887636, 0.01
199, 0.0894592, 0.01
200, 0.0893086, 0.01
201, 0.0898887, 0.01
202, 0.0899567, 0.01
203, 0.0900894, 0.01
204, 0.0904079, 0.01
205, 0.0900118, 0.01
206, 0.0907054, 0.01
207, 0.0897906, 0.01
208, 0.0909472, 0.01
209, 0.0895689, 0.01
210, 0.0911968, 0.01
211, 0.0894249, 0.01
212, 0.0914326, 0.01
213, 0.0893136, 0.01
214, 0.0914779, 0.01
215, 0.0890778, 0.01
216, 0.0910904, 0.01
217, 0.0886057, 0.01
218, 0.0902238, 0.01
219, 0.0879886, 0.01
220, 0.0891298, 0.01
221, 0.087551, 0.01
222, 0.0881983, 0.01
223, 0.0877892, 0.01
224, 0.0877089, 0.01
225, 0.0890274, 0.01
226, 0.0874226, 0.01
227, 0.0902996, 0.01
228, 0.0866351, 0.01
229, 0.0896573, 0.01
230, 0.0853559, 0.01
231, 0.0874949, 0.01
232, 0.0840053, 0.01
233, 0.0852526, 0.01
234, 0.0828771, 0.01
235, 0.0836038, 0.01
236, 0.082433, 0.01
237, 0.083199, 0.01
238, 0.0841138, 0.01
239, 0.0860517, 0.01
240, 0.0901229, 0.01
241, 0.0919687, 0.01
242, 0.0941377, 0.01
243, 0.0932963, 0.01
244, 0.0929712, 0.01
245, 0.0907486, 0.01
246, 0.0889326, 0.01
247, 0.0867503, 0.01
248, 0.0853549, 0.01
249, 0.0837872, 0.01
250, 0.0831476, 0.01
251, 0.0821494, 0.01
252, 0.0819501, 0.01
253, 0.081309, 0.01
254, 0.0813626, 0.01
255, 0.0809471, 0.01
256, 0.0812033, 0.01
257, 0.0809603, 0.01
258, 0.0814273, 0.01
259, 0.0813473, 0.01
260, 0.0820361, 0.01
261, 0.0821162, 0.01
262, 0.0829631, 0.01
263, 0.0831339, 0.01
264, 0.0839187, 0.01
265, 0.0839666, 0.01
266, 0.0844112, 0.01
267, 0.0840943, 0.01
268, 0.0841414, 0.01
269, 0.0834424, 0.01
270, 0.0832849, 0.01
271, 0.0824057, 0.01
272, 0.082255, 0.01
273, 0.0813998, 0.01
274, 0.0813649, 0.01
275, 0.0806354, 0.01
276, 0.0807439, 0.01
277, 0.0801635, 0.01
278, 0.0804136, 0.01
279, 0.0799766, 0.01
280, 0.0803597, 0.01
281, 0.0800526, 0.01
282, 0.0805496, 0.01
283, 0.0803493, 0.01
284, 0.080916, 0.01
285, 0.0807699, 0.01
286, 0.081329, 0.01
287, 0.081143, 0.01
288, 0.0816045, 0.01
289, 0.0812778, 0.01
290, 0.0815844, 0.01
291, 0.0810782, 0.01
292, 0.0812319, 0.01
293, 0.0805971, 0.01
294, 0.0806456, 0.01
295, 0.0799808, 0.01
296, 0.0799878, 0.01
297, 0.079381, 0.01
298, 0.0793957, 0.01
299, 0.0789014, 0.01
300, 0.0789489, 0.01
301, 0.0785941, 0.01
302, 0.0786764, 0.01
303, 0.0784714, 0.01
304, 0.0785691, 0.01
305, 0.0785145, 0.01
306, 0.0785849, 0.01
307, 0.0786657, 0.01
308, 0.078645, 0.01
309, 0.0788291, 0.01
310, 0.0786496, 0.01
311, 0.0789012, 0.01
312, 0.078516, 0.01
313, 0.0788314, 0.01
314, 0.0782296, 0.01
315, 0.0786769, 0.01
316, 0.0778775, 0.01
317, 0.078629, 0.01
318, 0.0776684, 0.01
319, 0.0790764, 0.01
320, 0.0780179, 0.01
321, 0.0807763, 0.01
322, 0.0796646, 0.01
323, 0.0848233, 0.01
324, 0.0828267, 0.01
325, 0.0900715, 0.01
326, 0.0842762, 0.01
327, 0.0898902, 0.01
328, 0.082505, 0.01
329, 0.0852992, 0.01
330, 0.0803041, 0.01
331, 0.081822, 0.01
332, 0.0797545, 0.01
333, 0.0809873, 0.01
334, 0.0838888, 0.01
335, 0.0825182, 0.01
336, 0.0906876, 0.01
337, 0.0800982, 0.01
338, 0.0849039, 0.01
339, 0.0778565, 0.01
340, 0.0800628, 0.01
341, 0.0759371, 0.01
342, 0.0767938, 0.01
343, 0.0746194, 0.01
344, 0.0749544, 0.01
345, 0.0739746, 0.01
346, 0.0741859, 0.01
347, 0.0738232, 0.01
348, 0.0741776, 0.01
349, 0.0739971, 0.01
350, 0.0749004, 0.01
351, 0.0744496, 0.01
352, 0.0763854, 0.01
353, 0.0750198, 0.01
354, 0.078116, 0.01
355, 0.0753705, 0.01
356, 0.0792711, 0.01
357, 0.0756111, 0.01
358, 0.0800093, 0.01
359, 0.0765142, 0.01
360, 0.0813813, 0.01
361, 0.0781573, 0.01
362, 0.0828203, 0.01
363, 0.0779714, 0.01
364, 0.081139, 0.01
365, 0.0758644, 0.01
366, 0.0776977, 0.01
367, 0.0739161, 0.01
368, 0.0752441, 0.01
369, 0.07274, 0.01
370, 0.0741166, 0.01
371, 0.0723503, 0.01
372, 0.0742118, 0.01
373, 0.0727378, 0.01
374, 0.0754787, 0.01
375, 0.0736103, 0.01
376, 0.0769865, 0.01
377, 0.0740668, 0.01
378, 0.0769008, 0.01
379, 0.0737576, 0.01
380, 0.0754281, 0.01
381, 0.0734963, 0.01
382, 0.0744046, 0.01
383, 0.0739859, 0.01
384, 0.0745472, 0.01
385, 0.0751924, 0.01
386, 0.0755228, 0.01
387, 0.076955, 0.01
388, 0.0772526, 0.01
389, 0.078848, 0.01
390, 0.0788773, 0.01
391, 0.079598, 0.01
392, 0.0786536, 0.01
393, 0.0787811, 0.01
394, 0.0770519, 0.01
395, 0.0770505, 0.01
396, 0.075305, 0.01
397, 0.0752456, 0.01
398, 0.0739409, 0.01
399, 0.0738472, 0.01
400, 0.0730666, 0.01
401, 0.0729267, 0.01
402, 0.0726297, 0.01
403, 0.072387, 0.01
404, 0.0725318, 0.01
405, 0.07209, 0.01
406, 0.0726451, 0.01
407, 0.0718926, 0.01
408, 0.0728247, 0.01
409, 0.0716817, 0.01
410, 0.0729803, 0.01
411, 0.0714367, 0.01
412, 0.0731706, 0.01
413, 0.0712691, 0.01
414, 0.0736357, 0.01
415, 0.0714102, 0.01
416, 0.0747006, 0.01
417, 0.0720725, 0.01
418, 0.07643, 0.01
419, 0.0730892, 0.01
420, 0.0780495, 0.01
421, 0.0737237, 0.01
422, 0.0782689, 0.01
423, 0.0734365, 0.01
424, 0.0769983, 0.01
425, 0.0725119, 0.01
426, 0.0752728, 0.01
427, 0.0714871, 0.01
428, 0.0738134, 0.01
429, 0.0706648, 0.01
430, 0.0728496, 0.01
431, 0.0701541, 0.01
432, 0.0724287, 0.01
433, 0.0699556, 0.01
434, 0.0724743, 0.01
435, 0.069928, 0.01
436, 0.0726591, 0.01
437, 0.0697992, 0.01
438, 0.0724838, 0.01
439, 0.0694129, 0.01
440, 0.0718044, 0.01
441, 0.0689385, 0.01
442, 0.0710352, 0.01
443, 0.0687624, 0.01
444, 0.070686, 0.01
445, 0.0693716, 0.01
446, 0.0709143, 0.01
447, 0.0709451, 0.01
448, 0.0711493, 0.01
449, 0.0721454, 0.01
450, 0.0707537, 0.01
451, 0.0716265, 0.01
452, 0.0702811, 0.01
453, 0.070539, 0.01
454, 0.0701885, 0.01
455, 0.0698058, 0.01
456, 0.0704483, 0.01
457, 0.06943, 0.01
458, 0.0707378, 0.01
459, 0.0691793, 0.01
460, 0.0707575, 0.01
461, 0.0689472, 0.01
462, 0.0705707, 0.01
463, 0.0687902, 0.01
464, 0.0704808, 0.01
465, 0.0687526, 0.01
466, 0.0706414, 0.01
467, 0.068763, 0.01
468, 0.0709807, 0.01
469, 0.0687779, 0.01
470, 0.0715004, 0.01
471, 0.0689777, 0.01
472, 0.0725465, 0.01
473, 0.06992, 0.01
474, 0.0748694, 0.01
475, 0.0721017, 0.01
476, 0.0780426, 0.01
477, 0.0731736, 0.01
478, 0.0777317, 0.01
479, 0.071461, 0.01
480, 0.0740098, 0.01
481, 0.0693105, 0.01
482, 0.0708621, 0.01
483, 0.0678164, 0.01
484, 0.0690894, 0.01
485, 0.0670671, 0.01
486, 0.0684229, 0.01
487, 0.0669504, 0.01
488, 0.0686113, 0.01
489, 0.0673312, 0.01
490, 0.069396, 0.01
491, 0.0679708, 0.01
492, 0.0702856, 0.01
493, 0.0685158, 0.01
494, 0.070662, 0.01
495, 0.0687902, 0.01
496, 0.0704024, 0.01
497, 0.069048, 0.01
498, 0.0700763, 0.01
499, 0.0697499, 0.01
500, 0.0703127, 0.01
