1, 0.218278, 0.01
2, 0.197538, 0.01
3, 0.192146, 0.01
4, 0.189755, 0.01
5, 0.188018, 0.01
6, 0.186627, 0.01
7, 0.185405, 0.01
8, 0.184277, 0.01
9, 0.183199, 0.01
10, 0.182138, 0.01
11, 0.181073, 0.01
12, 0.179992, 0.01
13, 0.178881, 0.01
14, 0.177734, 0.01
15, 0.176551, 0.01
16, 0.175332, 0.01
17, 0.174084, 0.01
18, 0.172814, 0.01
19, 0.171531, 0.01
20, 0.170243, 0.01
21, 0.168958, 0.01
22, 0.167682, 0.01
23, 0.16642, 0.01
24, 0.165175, 0.01
25, 0.16395, 0.01
26, 0.162747, 0.01
27, 0.161566, 0.01
28, 0.160406, 0.01
29, 0.159266, 0.01
30, 0.158146, 0.01
31, 0.15704, 0.01
32, 0.155947, 0.01
33, 0.154861, 0.01
34, 0.15378, 0.01
35, 0.152699, 0.01
36, 0.151616, 0.01
37, 0.150528, 0.01
38, 0.149435, 0.01
39, 0.14834, 0.01
40, 0.147245, 0.01
41, 0.146155, 0.01
42, 0.145074, 0.01
43, 0.144006, 0.01
44, 0.142953, 0.01
45, 0.141918, 0.01
46, 0.1409, 0.01
47, 0.1399, 0.01
48, 0.138919, 0.01
49, 0.137959, 0.01
50, 0.137017, 0.01
51, 0.136097, 0.01
52, 0.135196, 0.01
53, 0.134318, 0.01
54, 0.133456, 0.01
55, 0.132622, 0.01
56, 0.131798, 0.01
57, 0.131016, 0.01
58, 0.130227, 0.01
59, 0.129562, 0.01
60, 0.128914, 0.01
61, 0.12912, 0.01
62, 0.130492, 0.01
63, 0.13981, 0.01
64, 0.137107, 0.01
65, 0.153246, 0.01
66, 0.128871, 0.01
67, 0.127752, 0.01
68, 0.128871, 0.01
69, 0.130755, 0.01
70, 0.135392, 0.01
71, 0.136544, 0.01
72, 0.141733, 0.01
73, 0.139266, 0.01
74, 0.142025, 0.01
75, 0.127967, 0.01
76, 0.126829, 0.01
77, 0.124531, 0.01
78, 0.126147, 0.01
79, 0.124025, 0.01
80, 0.128951, 0.01
81, 0.124028, 0.01
82, 0.130995, 0.01
83, 0.125771, 0.01
84, 0.13214, 0.01
85, 0.131922, 0.01
86, 0.1318, 0.01
87, 0.130296, 0.01
88, 0.127703, 0.01
89, 0.124368, 0.01
90, 0.12565, 0.01
91, 0.121452, 0.01
92, 0.124541, 0.01
93, 0.119745, 0.01
94, 0.123593, 0.01
95, 0.118544, 0.01
96, 0.122622, 0.01
97, 0.117583, 0.01
98, 0.121637, 0.01
99, 0.116767, 0.01
100, 0.120701, 0.01
101, 0.116115, 0.01
102, 0.119934, 0.01
103, 0.115805, 0.01
104, 0.119541, 0.01
105, 0.116317, 0.01
106, 0.119718, 0.01
107, 0.118178, 0.01
108, 0.119837, 0.01
109, 0.119761, 0.01
110, 0.118466, 0.01
111, 0.118007, 0.01
112, 0.116467, 0.01
113, 0.11514, 0.01
114, 0.115118, 0.01
115, 0.113182, 0.01
116, 0.114863, 0.01
117, 0.112139, 0.01
118, 0.115483, 0.01
119, 0.1115, 0.01
120, 0.115959, 0.01
121, 0.111034, 0.01
122, 0.115783, 0.01
123, 0.111382, 0.01
124, 0.116287, 0.01
125, 0.114885, 0.01
126, 0.121665, 0.01
127, 0.123088, 0.01
128, 0.129135, 0.01
129, 0.119685, 0.01
130, 0.117208, 0.01
131, 0.112338, 0.01
132, 0.11045, 0.01
133, 0.108509, 0.01
134, 0.107713, 0.01
135, 0.106986, 0.01
136, 0.106761, 0.01
137, 0.10662, 0.01
138, 0.106778, 0.01
139, 0.107027, 0.01
140, 0.107541, 0.01
141, 0.107873, 0.01
142, 0.108562, 0.01
143, 0.10838, 0.01
144, 0.108769, 0.01
145, 0.107926, 0.01
146, 0.107789, 0.01
147, 0.106842, 0.01
148, 0.10644, 0.01
149, 0.105757, 0.01
150, 0.105361, 0.01
151, 0.104971, 0.01
152, 0.104685, 0.01
153, 0.104508, 0.01
154, 0.104336, 0.01
155, 0.104286, 0.01
156, 0.104189, 0.01
157, 0.104183, 0.01
158, 0.104098, 0.01
159, 0.104066, 0.01
160, 0.103929, 0.01
161, 0.103833, 0.01
162, 0.103599, 0.01
163, 0.103442, 0.01
164, 0.103109, 0.01
165, 0.102926, 0.01
166, 0.102522, 0.01
167, 0.102348, 0.01
168, 0.101922, 0.01
169, 0.101763, 0.01
170, 0.101384, 0.01
171, 0.101198, 0.01
172, 0.10096, 0.01
173, 0.100661, 0.01
174, 0.100727, 0.01
175, 0.100253, 0.01
176, 0.100929, 0.01
177, 0.100477, 0.01
178, 0.102313, 0.01
179, 0.103031, 0.01
180, 0.105319, 0.01
181, 0.109006, 0.01
182, 0.105035, 0.01
183, 0.108884, 0.01
184, 0.10234, 0.01
185, 0.105718, 0.01
186, 0.10085, 0.01
187, 0.104451, 0.01
188, 0.100108, 0.01
189, 0.103592, 0.01
190, 0.0996578, 0.01
191, 0.102849, 0.01
192, 0.0993484, 0.01
193, 0.102144, 0.01
194, 0.0990543, 0.01
195, 0.101416, 0.01
196, 0.0986632, 0.01
197, 0.100637, 0.01
198, 0.0981359, 0.01
199, 0.0998284, 0.01
200, 0.0975137, 0.01
201, 0.0990338, 0.01
202, 0.096868, 0.01
203, 0.0982875, 0.01
204, 0.0962506, 0.01
205, 0.0975993, 0.01
206, 0.0956834, 0.01
207, 0.0969623, 0.01
208, 0.0951659, 0.01
209, 0.0963623, 0.01
210, 0.0946863, 0.01
211, 0.0957833, 0.01
212, 0.0942274, 0.01
213, 0.0952152, 0.01
214, 0.0937759, 0.01
215, 0.0946514, 0.01
216, 0.0933214, 0.01
217, 0.0940927, 0.01
218, 0.0928612, 0.01
219, 0.0935424, 0.01
220, 0.0923978, 0.01
221, 0.0930078, 0.01
222, 0.0919388, 0.01
223, 0.0924957, 0.01
224, 0.0914914, 0.01
225, 0.0920111, 0.01
226, 0.0910613, 0.01
227, 0.0915574, 0.01
228, 0.0906527, 0.01
229, 0.0911359, 0.01
230, 0.0902672, 0.01
231, 0.0907462, 0.01
232, 0.0899043, 0.01
233, 0.090387, 0.01
234, 0.0895626, 0.01
235, 0.0900569, 0.01
236, 0.0892403, 0.01
237, 0.0897552, 0.01
238, 0.0889376, 0.01
239, 0.089481, 0.01
240, 0.0886535, 0.01
241, 0.0892336, 0.01
242, 0.0883864, 0.01
243, 0.0890112, 0.01
244, 0.0881366, 0.01
245, 0.0888117, 0.01
246, 0.0879022, 0.01
247, 0.08863, 0.01
248, 0.0876801, 0.01
249, 0.08846, 0.01
250, 0.087467, 0.01
251, 0.0882933, 0.01
252, 0.0872575, 0.01
253, 0.0881204, 0.01
254, 0.0870468, 0.01
255, 0.0879334, 0.01
256, 0.0868306, 0.01
257, 0.0877254, 0.01
258, 0.0866057, 0.01
259, 0.087493, 0.01
260, 0.0863704, 0.01
261, 0.0872364, 0.01
262, 0.0861244, 0.01
263, 0.0869584, 0.01
264, 0.0858686, 0.01
265, 0.0866637, 0.01
266, 0.0856047, 0.01
267, 0.0863595, 0.01
268, 0.0853354, 0.01
269, 0.0860533, 0.01
270, 0.0850642, 0.01
271, 0.085752, 0.01
272, 0.0847953, 0.01
273, 0.0854628, 0.01
274, 0.0845332, 0.01
275, 0.0851917, 0.01
276, 0.0842822, 0.01
277, 0.0849433, 0.01
278, 0.0840467, 0.01
279, 0.0847223, 0.01
280, 0.0838297, 0.01
281, 0.0845303, 0.01
282, 0.0836323, 0.01
283, 0.0843669, 0.01
284, 0.0834555, 0.01
285, 0.0842303, 0.01
286, 0.0832961, 0.01
287, 0.0841155, 0.01
288, 0.0831501, 0.01
289, 0.084015, 0.01
290, 0.0830128, 0.01
291, 0.0839191, 0.01
292, 0.082877, 0.01
293, 0.0838173, 0.01
294, 0.0827367, 0.01
295, 0.0836996, 0.01
296, 0.0825865, 0.01
297, 0.083557, 0.01
298, 0.0824223, 0.01
299, 0.0833854, 0.01
300, 0.082243, 0.01
301, 0.0831842, 0.01
302, 0.0820496, 0.01
303, 0.0829577, 0.01
304, 0.0818442, 0.01
305, 0.0827117, 0.01
306, 0.0816298, 0.01
307, 0.0824538, 0.01
308, 0.0814101, 0.01
309, 0.0821923, 0.01
310, 0.0811889, 0.01
311, 0.0819355, 0.01
312, 0.0809703, 0.01
313, 0.0816906, 0.01
314, 0.0807587, 0.01
315, 0.0814647, 0.01
316, 0.0805587, 0.01
317, 0.0812637, 0.01
318, 0.0803752, 0.01
319, 0.0810918, 0.01
320, 0.0802103, 0.01
321, 0.0809513, 0.01
322, 0.0800663, 0.01
323, 0.080842, 0.01
324, 0.0799423, 0.01
325, 0.0807596, 0.01
326, 0.0798347, 0.01
327, 0.0806976, 0.01
328, 0.0797381, 0.01
329, 0.0806447, 0.01
330, 0.0796445, 0.01
331, 0.080587, 0.01
332, 0.0795458, 0.01
333, 0.0805097, 0.01
334, 0.0794344, 0.01
335, 0.0804015, 0.01
336, 0.0793056, 0.01
337, 0.0802544, 0.01
338, 0.0791581, 0.01
339, 0.0800673, 0.01
340, 0.0789934, 0.01
341, 0.079845, 0.01
342, 0.0788147, 0.01
343, 0.0795955, 0.01
344, 0.0786255, 0.01
345, 0.0793282, 0.01
346, 0.0784278, 0.01
347, 0.0790517, 0.01
348, 0.0782231, 0.01
349, 0.0787751, 0.01
350, 0.0780137, 0.01
351, 0.0785063, 0.01
352, 0.0778031, 0.01
353, 0.078255, 0.01
354, 0.0775978, 0.01
355, 0.0780304, 0.01
356, 0.0774059, 0.01
357, 0.0778442, 0.01
358, 0.0772374, 0.01
359, 0.0777073, 0.01
360, 0.0771013, 0.01
361, 0.07763, 0.01
362, 0.0770052, 0.01
363, 0.0776197, 0.01
364, 0.0769518, 0.01
365, 0.0776777, 0.01
366, 0.076936, 0.01
367, 0.0777924, 0.01
368, 0.0769439, 0.01
369, 0.0779357, 0.01
370, 0.0769493, 0.01
371, 0.0780587, 0.01
372, 0.0769207, 0.01
373, 0.0781032, 0.01
374, 0.0768296, 0.01
375, 0.0780193, 0.01
376, 0.0766685, 0.01
377, 0.0777922, 0.01
378, 0.0764588, 0.01
379, 0.0774525, 0.01
380, 0.0762518, 0.01
381, 0.0770589, 0.01
382, 0.0761076, 0.01
383, 0.0766652, 0.01
384, 0.0760629, 0.01
385, 0.0762799, 0.01
386, 0.0760771, 0.01
387, 0.0758423, 0.01
388, 0.0759966, 0.01
389, 0.0752775, 0.01
390, 0.0756478, 0.01
391, 0.0746431, 0.01
392, 0.0751009, 0.01
393, 0.0742408, 0.01
394, 0.0747987, 0.01
395, 0.0746643, 0.01
396, 0.0754946, 0.01
397, 0.0768, 0.01
398, 0.077983, 0.01
399, 0.0807201, 0.01
400, 0.0813916, 0.01
401, 0.0830105, 0.01
402, 0.0818943, 0.01
403, 0.0807342, 0.01
404, 0.0781863, 0.01
405, 0.0760579, 0.01
406, 0.0738305, 0.01
407, 0.0725729, 0.01
408, 0.0713787, 0.01
409, 0.0709717, 0.01
410, 0.070364, 0.01
411, 0.070406, 0.01
412, 0.070073, 0.01
413, 0.0704222, 0.01
414, 0.0702745, 0.01
415, 0.0709481, 0.01
416, 0.0709999, 0.01
417, 0.0720542, 0.01
418, 0.0723194, 0.01
419, 0.073643, 0.01
420, 0.0739026, 0.01
421, 0.0749839, 0.01
422, 0.0746667, 0.01
423, 0.0751421, 0.01
424, 0.0742083, 0.01
425, 0.0743632, 0.01
426, 0.0735636, 0.01
427, 0.0734539, 0.01
428, 0.0731729, 0.01
429, 0.0727014, 0.01
430, 0.0728563, 0.01
431, 0.0720874, 0.01
432, 0.0725345, 0.01
433, 0.0716117, 0.01
434, 0.0723028, 0.01
435, 0.0713551, 0.01
436, 0.0723504, 0.01
437, 0.0715649, 0.01
438, 0.0730439, 0.01
439, 0.0729777, 0.01
440, 0.075214, 0.01
441, 0.0774366, 0.01
442, 0.079698, 0.01
443, 0.0853061, 0.01
444, 0.0824271, 0.01
445, 0.0861307, 0.01
446, 0.0782649, 0.01
447, 0.078444, 0.01
448, 0.0741277, 0.01
449, 0.0741828, 0.01
450, 0.0728359, 0.01
451, 0.0729158, 0.01
452, 0.0729645, 0.01
453, 0.0724945, 0.01
454, 0.0732798, 0.01
455, 0.0718922, 0.01
456, 0.0727981, 0.01
457, 0.0709572, 0.01
458, 0.0716391, 0.01
459, 0.0700897, 0.01
460, 0.0705844, 0.01
461, 0.0695973, 0.01
462, 0.0700319, 0.01
463, 0.069623, 0.01
464, 0.0700723, 0.01
465, 0.0702864, 0.01
466, 0.0706974, 0.01
467, 0.0715741, 0.01
468, 0.0716575, 0.01
469, 0.0729098, 0.01
470, 0.0722273, 0.01
471, 0.0732037, 0.01
472, 0.0717267, 0.01
473, 0.0721842, 0.01
474, 0.0704787, 0.01
475, 0.07078, 0.01
476, 0.0693504, 0.01
477, 0.0698063, 0.01
478, 0.0687427, 0.01
479, 0.0694162, 0.01
480, 0.068617, 0.01
481, 0.0694589, 0.01
482, 0.0688128, 0.01
483, 0.0697287, 0.01
484, 0.0691474, 0.01
485, 0.0700172, 0.01
486, 0.0694485, 0.01
487, 0.0701645, 0.01
488, 0.0696104, 0.01
489, 0.070115, 0.01
490, 0.0696195, 0.01
491, 0.0699072, 0.01
492, 0.069509, 0.01
493, 0.0696133, 0.01
494, 0.069319, 0.01
495, 0.0692924, 0.01
496, 0.069084, 0.01
497, 0.0689801, 0.01
498, 0.0688336, 0.01
499, 0.068695, 0.01
500, 0.0685891, 0.01
