Epochs            1. MSE: 0.36220. Desired-MSE: 0.01000
Epochs            2. MSE: 0.23017. Desired-MSE: 0.01000
Epochs            3. MSE: 0.21381. Desired-MSE: 0.01000
Epochs            4. MSE: 0.26998. Desired-MSE: 0.01000
Epochs            5. MSE: 0.20528. Desired-MSE: 0.01000
Epochs            6. MSE: 0.17149. Desired-MSE: 0.01000
Epochs            7. MSE: 0.16177. Desired-MSE: 0.01000
Epochs            8. MSE: 0.16913. Desired-MSE: 0.01000
Epochs            9. MSE: 0.13847. Desired-MSE: 0.01000
Epochs           10. MSE: 0.13163. Desired-MSE: 0.01000
Epochs           11. MSE: 0.13148. Desired-MSE: 0.01000
Epochs           12. MSE: 0.12316. Desired-MSE: 0.01000
Epochs           13. MSE: 0.11816. Desired-MSE: 0.01000
Epochs           14. MSE: 0.11762. Desired-MSE: 0.01000
Epochs           15. MSE: 0.11472. Desired-MSE: 0.01000
Epochs           16. MSE: 0.11062. Desired-MSE: 0.01000
Epochs           17. MSE: 0.10967. Desired-MSE: 0.01000
Epochs           18. MSE: 0.10471. Desired-MSE: 0.01000
Epochs           19. MSE: 0.10356. Desired-MSE: 0.01000
Epochs           20. MSE: 0.10135. Desired-MSE: 0.01000
Epochs           21. MSE: 0.09895. Desired-MSE: 0.01000
Epochs           22. MSE: 0.09738. Desired-MSE: 0.01000
Epochs           23. MSE: 0.09599. Desired-MSE: 0.01000
Epochs           24. MSE: 0.09396. Desired-MSE: 0.01000
Epochs           25. MSE: 0.09336. Desired-MSE: 0.01000
Epochs           26. MSE: 0.09343. Desired-MSE: 0.01000
Epochs           27. MSE: 0.09217. Desired-MSE: 0.01000
Epochs           28. MSE: 0.09048. Desired-MSE: 0.01000
Epochs           29. MSE: 0.09018. Desired-MSE: 0.01000
Epochs           30. MSE: 0.08891. Desired-MSE: 0.01000
Epochs           31. MSE: 0.08913. Desired-MSE: 0.01000
Epochs           32. MSE: 0.08825. Desired-MSE: 0.01000
Epochs           33. MSE: 0.08655. Desired-MSE: 0.01000
Epochs           34. MSE: 0.08586. Desired-MSE: 0.01000
Epochs           35. MSE: 0.08546. Desired-MSE: 0.01000
Epochs           36. MSE: 0.08409. Desired-MSE: 0.01000
Epochs           37. MSE: 0.08297. Desired-MSE: 0.01000
Epochs           38. MSE: 0.08264. Desired-MSE: 0.01000
Epochs           39. MSE: 0.08214. Desired-MSE: 0.01000
Epochs           40. MSE: 0.08106. Desired-MSE: 0.01000
Epochs           41. MSE: 0.08065. Desired-MSE: 0.01000
Epochs           42. MSE: 0.08004. Desired-MSE: 0.01000
Epochs           43. MSE: 0.07914. Desired-MSE: 0.01000
Epochs           44. MSE: 0.07852. Desired-MSE: 0.01000
Epochs           45. MSE: 0.07789. Desired-MSE: 0.01000
Epochs           46. MSE: 0.07710. Desired-MSE: 0.01000
Epochs           47. MSE: 0.07753. Desired-MSE: 0.01000
Epochs           48. MSE: 0.07746. Desired-MSE: 0.01000
Epochs           49. MSE: 0.07548. Desired-MSE: 0.01000
Epochs           50. MSE: 0.07521. Desired-MSE: 0.01000
Epochs           51. MSE: 0.07477. Desired-MSE: 0.01000
Epochs           52. MSE: 0.07401. Desired-MSE: 0.01000
Epochs           53. MSE: 0.07373. Desired-MSE: 0.01000
Epochs           54. MSE: 0.07427. Desired-MSE: 0.01000
Epochs           55. MSE: 0.07319. Desired-MSE: 0.01000
Epochs           56. MSE: 0.07256. Desired-MSE: 0.01000
Epochs           57. MSE: 0.07219. Desired-MSE: 0.01000
Epochs           58. MSE: 0.07199. Desired-MSE: 0.01000
Epochs           59. MSE: 0.07146. Desired-MSE: 0.01000
Epochs           60. MSE: 0.07150. Desired-MSE: 0.01000
Epochs           61. MSE: 0.07154. Desired-MSE: 0.01000
Epochs           62. MSE: 0.07081. Desired-MSE: 0.01000
Epochs           63. MSE: 0.07007. Desired-MSE: 0.01000
Epochs           64. MSE: 0.06960. Desired-MSE: 0.01000
Epochs           65. MSE: 0.06940. Desired-MSE: 0.01000
Epochs           66. MSE: 0.06928. Desired-MSE: 0.01000
Epochs           67. MSE: 0.06913. Desired-MSE: 0.01000
Epochs           68. MSE: 0.06872. Desired-MSE: 0.01000
Epochs           69. MSE: 0.06852. Desired-MSE: 0.01000
Epochs           70. MSE: 0.06829. Desired-MSE: 0.01000
Epochs           71. MSE: 0.06827. Desired-MSE: 0.01000
Epochs           72. MSE: 0.06785. Desired-MSE: 0.01000
Epochs           73. MSE: 0.06748. Desired-MSE: 0.01000
Epochs           74. MSE: 0.06734. Desired-MSE: 0.01000
Epochs           75. MSE: 0.06745. Desired-MSE: 0.01000
Epochs           76. MSE: 0.06700. Desired-MSE: 0.01000
Epochs           77. MSE: 0.06643. Desired-MSE: 0.01000
Epochs           78. MSE: 0.06628. Desired-MSE: 0.01000
Epochs           79. MSE: 0.06650. Desired-MSE: 0.01000
Epochs           80. MSE: 0.06593. Desired-MSE: 0.01000
Epochs           81. MSE: 0.06546. Desired-MSE: 0.01000
Epochs           82. MSE: 0.06539. Desired-MSE: 0.01000
Epochs           83. MSE: 0.06517. Desired-MSE: 0.01000
Epochs           84. MSE: 0.06481. Desired-MSE: 0.01000
Epochs           85. MSE: 0.06479. Desired-MSE: 0.01000
Epochs           86. MSE: 0.06519. Desired-MSE: 0.01000
Epochs           87. MSE: 0.06421. Desired-MSE: 0.01000
Epochs           88. MSE: 0.06387. Desired-MSE: 0.01000
Epochs           89. MSE: 0.06369. Desired-MSE: 0.01000
Epochs           90. MSE: 0.06356. Desired-MSE: 0.01000
Epochs           91. MSE: 0.06363. Desired-MSE: 0.01000
Epochs           92. MSE: 0.06344. Desired-MSE: 0.01000
Epochs           93. MSE: 0.06343. Desired-MSE: 0.01000
Epochs           94. MSE: 0.06308. Desired-MSE: 0.01000
Epochs           95. MSE: 0.06266. Desired-MSE: 0.01000
Epochs           96. MSE: 0.06268. Desired-MSE: 0.01000
Epochs           97. MSE: 0.06237. Desired-MSE: 0.01000
Epochs           98. MSE: 0.06205. Desired-MSE: 0.01000
Epochs           99. MSE: 0.06223. Desired-MSE: 0.01000
Epochs          100. MSE: 0.06226. Desired-MSE: 0.01000
Epochs          101. MSE: 0.06155. Desired-MSE: 0.01000
Epochs          102. MSE: 0.06137. Desired-MSE: 0.01000
Epochs          103. MSE: 0.06150. Desired-MSE: 0.01000
Epochs          104. MSE: 0.06146. Desired-MSE: 0.01000
Epochs          105. MSE: 0.06076. Desired-MSE: 0.01000
Epochs          106. MSE: 0.06061. Desired-MSE: 0.01000
Epochs          107. MSE: 0.06070. Desired-MSE: 0.01000
Epochs          108. MSE: 0.06059. Desired-MSE: 0.01000
Epochs          109. MSE: 0.06011. Desired-MSE: 0.01000
Epochs          110. MSE: 0.06008. Desired-MSE: 0.01000
Epochs          111. MSE: 0.06028. Desired-MSE: 0.01000
Epochs          112. MSE: 0.06012. Desired-MSE: 0.01000
Epochs          113. MSE: 0.05960. Desired-MSE: 0.01000
Epochs          114. MSE: 0.05944. Desired-MSE: 0.01000
Epochs          115. MSE: 0.05963. Desired-MSE: 0.01000
Epochs          116. MSE: 0.05953. Desired-MSE: 0.01000
Epochs          117. MSE: 0.05903. Desired-MSE: 0.01000
Epochs          118. MSE: 0.05892. Desired-MSE: 0.01000
Epochs          119. MSE: 0.05907. Desired-MSE: 0.01000
Epochs          120. MSE: 0.05903. Desired-MSE: 0.01000
Epochs          121. MSE: 0.05863. Desired-MSE: 0.01000
Epochs          122. MSE: 0.05846. Desired-MSE: 0.01000
Epochs          123. MSE: 0.05871. Desired-MSE: 0.01000
Epochs          124. MSE: 0.05868. Desired-MSE: 0.01000
Epochs          125. MSE: 0.05808. Desired-MSE: 0.01000
Epochs          126. MSE: 0.05790. Desired-MSE: 0.01000
Epochs          127. MSE: 0.05803. Desired-MSE: 0.01000
Epochs          128. MSE: 0.05813. Desired-MSE: 0.01000
Epochs          129. MSE: 0.05757. Desired-MSE: 0.01000
Epochs          130. MSE: 0.05746. Desired-MSE: 0.01000
Epochs          131. MSE: 0.05742. Desired-MSE: 0.01000
Epochs          132. MSE: 0.05748. Desired-MSE: 0.01000
Epochs          133. MSE: 0.05731. Desired-MSE: 0.01000
Epochs          134. MSE: 0.05713. Desired-MSE: 0.01000
Epochs          135. MSE: 0.05736. Desired-MSE: 0.01000
Epochs          136. MSE: 0.05738. Desired-MSE: 0.01000
Epochs          137. MSE: 0.05675. Desired-MSE: 0.01000
Epochs          138. MSE: 0.05654. Desired-MSE: 0.01000
Epochs          139. MSE: 0.05668. Desired-MSE: 0.01000
Epochs          140. MSE: 0.05695. Desired-MSE: 0.01000
Epochs          141. MSE: 0.05630. Desired-MSE: 0.01000
Epochs          142. MSE: 0.05615. Desired-MSE: 0.01000
Epochs          143. MSE: 0.05619. Desired-MSE: 0.01000
Epochs          144. MSE: 0.05637. Desired-MSE: 0.01000
Epochs          145. MSE: 0.05596. Desired-MSE: 0.01000
Epochs          146. MSE: 0.05577. Desired-MSE: 0.01000
Epochs          147. MSE: 0.05594. Desired-MSE: 0.01000
Epochs          148. MSE: 0.05621. Desired-MSE: 0.01000
Epochs          149. MSE: 0.05547. Desired-MSE: 0.01000
Epochs          150. MSE: 0.05532. Desired-MSE: 0.01000
Epochs          151. MSE: 0.05538. Desired-MSE: 0.01000
Epochs          152. MSE: 0.05557. Desired-MSE: 0.01000
Epochs          153. MSE: 0.05514. Desired-MSE: 0.01000
Epochs          154. MSE: 0.05504. Desired-MSE: 0.01000
Epochs          155. MSE: 0.05530. Desired-MSE: 0.01000
Epochs          156. MSE: 0.05545. Desired-MSE: 0.01000
Epochs          157. MSE: 0.05478. Desired-MSE: 0.01000
Epochs          158. MSE: 0.05460. Desired-MSE: 0.01000
Epochs          159. MSE: 0.05473. Desired-MSE: 0.01000
Epochs          160. MSE: 0.05495. Desired-MSE: 0.01000
Epochs          161. MSE: 0.05447. Desired-MSE: 0.01000
Epochs          162. MSE: 0.05430. Desired-MSE: 0.01000
Epochs          163. MSE: 0.05446. Desired-MSE: 0.01000
Epochs          164. MSE: 0.05471. Desired-MSE: 0.01000
Epochs          165. MSE: 0.05417. Desired-MSE: 0.01000
Epochs          166. MSE: 0.05396. Desired-MSE: 0.01000
Epochs          167. MSE: 0.05414. Desired-MSE: 0.01000
Epochs          168. MSE: 0.05440. Desired-MSE: 0.01000
Epochs          169. MSE: 0.05377. Desired-MSE: 0.01000
Epochs          170. MSE: 0.05359. Desired-MSE: 0.01000
Epochs          171. MSE: 0.05374. Desired-MSE: 0.01000
Epochs          172. MSE: 0.05403. Desired-MSE: 0.01000
Epochs          173. MSE: 0.05339. Desired-MSE: 0.01000
Epochs          174. MSE: 0.05320. Desired-MSE: 0.01000
Epochs          175. MSE: 0.05329. Desired-MSE: 0.01000
Epochs          176. MSE: 0.05361. Desired-MSE: 0.01000
Epochs          177. MSE: 0.05296. Desired-MSE: 0.01000
Epochs          178. MSE: 0.05281. Desired-MSE: 0.01000
Epochs          179. MSE: 0.05297. Desired-MSE: 0.01000
Epochs          180. MSE: 0.05330. Desired-MSE: 0.01000
Epochs          181. MSE: 0.05250. Desired-MSE: 0.01000
Epochs          182. MSE: 0.05237. Desired-MSE: 0.01000
Epochs          183. MSE: 0.05236. Desired-MSE: 0.01000
Epochs          184. MSE: 0.05256. Desired-MSE: 0.01000
Epochs          185. MSE: 0.05230. Desired-MSE: 0.01000
Epochs          186. MSE: 0.05244. Desired-MSE: 0.01000
Epochs          187. MSE: 0.05243. Desired-MSE: 0.01000
Epochs          188. MSE: 0.05193. Desired-MSE: 0.01000
Epochs          189. MSE: 0.05196. Desired-MSE: 0.01000
Epochs          190. MSE: 0.05200. Desired-MSE: 0.01000
Epochs          191. MSE: 0.05171. Desired-MSE: 0.01000
Epochs          192. MSE: 0.05178. Desired-MSE: 0.01000
Epochs          193. MSE: 0.05198. Desired-MSE: 0.01000
Epochs          194. MSE: 0.05166. Desired-MSE: 0.01000
Epochs          195. MSE: 0.05148. Desired-MSE: 0.01000
Epochs          196. MSE: 0.05152. Desired-MSE: 0.01000
Epochs          197. MSE: 0.05164. Desired-MSE: 0.01000
Epochs          198. MSE: 0.05138. Desired-MSE: 0.01000
Epochs          199. MSE: 0.05117. Desired-MSE: 0.01000
Epochs          200. MSE: 0.05134. Desired-MSE: 0.01000
Epochs          201. MSE: 0.05152. Desired-MSE: 0.01000
Epochs          202. MSE: 0.05109. Desired-MSE: 0.01000
Epochs          203. MSE: 0.05099. Desired-MSE: 0.01000
Epochs          204. MSE: 0.05104. Desired-MSE: 0.01000
Epochs          205. MSE: 0.05124. Desired-MSE: 0.01000
Epochs          206. MSE: 0.05079. Desired-MSE: 0.01000
Epochs          207. MSE: 0.05061. Desired-MSE: 0.01000
Epochs          208. MSE: 0.05091. Desired-MSE: 0.01000
Epochs          209. MSE: 0.05085. Desired-MSE: 0.01000
Epochs          210. MSE: 0.05057. Desired-MSE: 0.01000
Epochs          211. MSE: 0.05037. Desired-MSE: 0.01000
Epochs          212. MSE: 0.05064. Desired-MSE: 0.01000
Epochs          213. MSE: 0.05081. Desired-MSE: 0.01000
Epochs          214. MSE: 0.05023. Desired-MSE: 0.01000
Epochs          215. MSE: 0.05013. Desired-MSE: 0.01000
Epochs          216. MSE: 0.05051. Desired-MSE: 0.01000
Epochs          217. MSE: 0.05039. Desired-MSE: 0.01000
Epochs          218. MSE: 0.05004. Desired-MSE: 0.01000
Epochs          219. MSE: 0.04984. Desired-MSE: 0.01000
Epochs          220. MSE: 0.05019. Desired-MSE: 0.01000
Epochs          221. MSE: 0.05026. Desired-MSE: 0.01000
Epochs          222. MSE: 0.04967. Desired-MSE: 0.01000
Epochs          223. MSE: 0.04959. Desired-MSE: 0.01000
Epochs          224. MSE: 0.05000. Desired-MSE: 0.01000
Epochs          225. MSE: 0.04987. Desired-MSE: 0.01000
Epochs          226. MSE: 0.04941. Desired-MSE: 0.01000
Epochs          227. MSE: 0.04940. Desired-MSE: 0.01000
Epochs          228. MSE: 0.04991. Desired-MSE: 0.01000
Epochs          229. MSE: 0.04970. Desired-MSE: 0.01000
Epochs          230. MSE: 0.04930. Desired-MSE: 0.01000
Epochs          231. MSE: 0.04926. Desired-MSE: 0.01000
Epochs          232. MSE: 0.04999. Desired-MSE: 0.01000
Epochs          233. MSE: 0.04956. Desired-MSE: 0.01000
Epochs          234. MSE: 0.04913. Desired-MSE: 0.01000
Epochs          235. MSE: 0.04894. Desired-MSE: 0.01000
Epochs          236. MSE: 0.04941. Desired-MSE: 0.01000
Epochs          237. MSE: 0.04962. Desired-MSE: 0.01000
Epochs          238. MSE: 0.04896. Desired-MSE: 0.01000
Epochs          239. MSE: 0.04862. Desired-MSE: 0.01000
Epochs          240. MSE: 0.04887. Desired-MSE: 0.01000
Epochs          241. MSE: 0.04916. Desired-MSE: 0.01000
Epochs          242. MSE: 0.04840. Desired-MSE: 0.01000
Epochs          243. MSE: 0.04834. Desired-MSE: 0.01000
Epochs          244. MSE: 0.04865. Desired-MSE: 0.01000
Epochs          245. MSE: 0.04851. Desired-MSE: 0.01000
Epochs          246. MSE: 0.04812. Desired-MSE: 0.01000
Epochs          247. MSE: 0.04831. Desired-MSE: 0.01000
Epochs          248. MSE: 0.04912. Desired-MSE: 0.01000
Epochs          249. MSE: 0.04831. Desired-MSE: 0.01000
Epochs          250. MSE: 0.04809. Desired-MSE: 0.01000
Epochs          251. MSE: 0.04838. Desired-MSE: 0.01000
Epochs          252. MSE: 0.04856. Desired-MSE: 0.01000
Epochs          253. MSE: 0.04829. Desired-MSE: 0.01000
Epochs          254. MSE: 0.04801. Desired-MSE: 0.01000
Epochs          255. MSE: 0.04820. Desired-MSE: 0.01000
Epochs          256. MSE: 0.04795. Desired-MSE: 0.01000
Epochs          257. MSE: 0.04791. Desired-MSE: 0.01000
Epochs          258. MSE: 0.04805. Desired-MSE: 0.01000
Epochs          259. MSE: 0.04774. Desired-MSE: 0.01000
Epochs          260. MSE: 0.04789. Desired-MSE: 0.01000
Epochs          261. MSE: 0.04774. Desired-MSE: 0.01000
Epochs          262. MSE: 0.04781. Desired-MSE: 0.01000
Epochs          263. MSE: 0.04772. Desired-MSE: 0.01000
Epochs          264. MSE: 0.04748. Desired-MSE: 0.01000
Epochs          265. MSE: 0.04747. Desired-MSE: 0.01000
Epochs          266. MSE: 0.04762. Desired-MSE: 0.01000
Epochs          267. MSE: 0.04749. Desired-MSE: 0.01000
Epochs          268. MSE: 0.04758. Desired-MSE: 0.01000
Epochs          269. MSE: 0.04722. Desired-MSE: 0.01000
Epochs          270. MSE: 0.04747. Desired-MSE: 0.01000
Epochs          271. MSE: 0.04725. Desired-MSE: 0.01000
Epochs          272. MSE: 0.04727. Desired-MSE: 0.01000
Epochs          273. MSE: 0.04725. Desired-MSE: 0.01000
Epochs          274. MSE: 0.04707. Desired-MSE: 0.01000
Epochs          275. MSE: 0.04709. Desired-MSE: 0.01000
Epochs          276. MSE: 0.04710. Desired-MSE: 0.01000
Epochs          277. MSE: 0.04694. Desired-MSE: 0.01000
Epochs          278. MSE: 0.04719. Desired-MSE: 0.01000
Epochs          279. MSE: 0.04680. Desired-MSE: 0.01000
Epochs          280. MSE: 0.04682. Desired-MSE: 0.01000
Epochs          281. MSE: 0.04679. Desired-MSE: 0.01000
Epochs          282. MSE: 0.04701. Desired-MSE: 0.01000
Epochs          283. MSE: 0.04679. Desired-MSE: 0.01000
Epochs          284. MSE: 0.04646. Desired-MSE: 0.01000
Epochs          285. MSE: 0.04650. Desired-MSE: 0.01000
Epochs          286. MSE: 0.04667. Desired-MSE: 0.01000
Epochs          287. MSE: 0.04662. Desired-MSE: 0.01000
Epochs          288. MSE: 0.04654. Desired-MSE: 0.01000
Epochs          289. MSE: 0.04621. Desired-MSE: 0.01000
Epochs          290. MSE: 0.04644. Desired-MSE: 0.01000
Epochs          291. MSE: 0.04651. Desired-MSE: 0.01000
Epochs          292. MSE: 0.04630. Desired-MSE: 0.01000
Epochs          293. MSE: 0.04618. Desired-MSE: 0.01000
Epochs          294. MSE: 0.04623. Desired-MSE: 0.01000
Epochs          295. MSE: 0.04628. Desired-MSE: 0.01000
Epochs          296. MSE: 0.04610. Desired-MSE: 0.01000
Epochs          297. MSE: 0.04593. Desired-MSE: 0.01000
Epochs          298. MSE: 0.04639. Desired-MSE: 0.01000
Epochs          299. MSE: 0.04606. Desired-MSE: 0.01000
Epochs          300. MSE: 0.04583. Desired-MSE: 0.01000
Epochs          301. MSE: 0.04565. Desired-MSE: 0.01000
Epochs          302. MSE: 0.04596. Desired-MSE: 0.01000
Epochs          303. MSE: 0.04622. Desired-MSE: 0.01000
Epochs          304. MSE: 0.04538. Desired-MSE: 0.01000
Epochs          305. MSE: 0.04531. Desired-MSE: 0.01000
Epochs          306. MSE: 0.04556. Desired-MSE: 0.01000
Epochs          307. MSE: 0.04574. Desired-MSE: 0.01000
Epochs          308. MSE: 0.04523. Desired-MSE: 0.01000
Epochs          309. MSE: 0.04524. Desired-MSE: 0.01000
Epochs          310. MSE: 0.04553. Desired-MSE: 0.01000
Epochs          311. MSE: 0.04569. Desired-MSE: 0.01000
Epochs          312. MSE: 0.04524. Desired-MSE: 0.01000
Epochs          313. MSE: 0.04527. Desired-MSE: 0.01000
Epochs          314. MSE: 0.04559. Desired-MSE: 0.01000
Epochs          315. MSE: 0.04546. Desired-MSE: 0.01000
Epochs          316. MSE: 0.04552. Desired-MSE: 0.01000
Epochs          317. MSE: 0.04509. Desired-MSE: 0.01000
Epochs          318. MSE: 0.04495. Desired-MSE: 0.01000
Epochs          319. MSE: 0.04525. Desired-MSE: 0.01000
Epochs          320. MSE: 0.04541. Desired-MSE: 0.01000
Epochs          321. MSE: 0.04505. Desired-MSE: 0.01000
Epochs          322. MSE: 0.04469. Desired-MSE: 0.01000
Epochs          323. MSE: 0.04477. Desired-MSE: 0.01000
Epochs          324. MSE: 0.04502. Desired-MSE: 0.01000
Epochs          325. MSE: 0.04494. Desired-MSE: 0.01000
Epochs          326. MSE: 0.04477. Desired-MSE: 0.01000
Epochs          327. MSE: 0.04480. Desired-MSE: 0.01000
Epochs          328. MSE: 0.04474. Desired-MSE: 0.01000
Epochs          329. MSE: 0.04479. Desired-MSE: 0.01000
Epochs          330. MSE: 0.04469. Desired-MSE: 0.01000
Epochs          331. MSE: 0.04473. Desired-MSE: 0.01000
Epochs          332. MSE: 0.04475. Desired-MSE: 0.01000
Epochs          333. MSE: 0.04451. Desired-MSE: 0.01000
Epochs          334. MSE: 0.04459. Desired-MSE: 0.01000
Epochs          335. MSE: 0.04457. Desired-MSE: 0.01000
Epochs          336. MSE: 0.04445. Desired-MSE: 0.01000
Epochs          337. MSE: 0.04457. Desired-MSE: 0.01000
Epochs          338. MSE: 0.04423. Desired-MSE: 0.01000
Epochs          339. MSE: 0.04438. Desired-MSE: 0.01000
Epochs          340. MSE: 0.04433. Desired-MSE: 0.01000
Epochs          341. MSE: 0.04437. Desired-MSE: 0.01000
Epochs          342. MSE: 0.04421. Desired-MSE: 0.01000
Epochs          343. MSE: 0.04407. Desired-MSE: 0.01000
Epochs          344. MSE: 0.04417. Desired-MSE: 0.01000
Epochs          345. MSE: 0.04413. Desired-MSE: 0.01000
Epochs          346. MSE: 0.04400. Desired-MSE: 0.01000
Epochs          347. MSE: 0.04400. Desired-MSE: 0.01000
Epochs          348. MSE: 0.04377. Desired-MSE: 0.01000
Epochs          349. MSE: 0.04395. Desired-MSE: 0.01000
Epochs          350. MSE: 0.04398. Desired-MSE: 0.01000
Epochs          351. MSE: 0.04392. Desired-MSE: 0.01000
Epochs          352. MSE: 0.04386. Desired-MSE: 0.01000
Epochs          353. MSE: 0.04372. Desired-MSE: 0.01000
Epochs          354. MSE: 0.04372. Desired-MSE: 0.01000
Epochs          355. MSE: 0.04379. Desired-MSE: 0.01000
Epochs          356. MSE: 0.04358. Desired-MSE: 0.01000
Epochs          357. MSE: 0.04367. Desired-MSE: 0.01000
Epochs          358. MSE: 0.04337. Desired-MSE: 0.01000
Epochs          359. MSE: 0.04349. Desired-MSE: 0.01000
Epochs          360. MSE: 0.04338. Desired-MSE: 0.01000
Epochs          361. MSE: 0.04348. Desired-MSE: 0.01000
Epochs          362. MSE: 0.04328. Desired-MSE: 0.01000
Epochs          363. MSE: 0.04311. Desired-MSE: 0.01000
Epochs          364. MSE: 0.04324. Desired-MSE: 0.01000
Epochs          365. MSE: 0.04342. Desired-MSE: 0.01000
Epochs          366. MSE: 0.04312. Desired-MSE: 0.01000
Epochs          367. MSE: 0.04306. Desired-MSE: 0.01000
Epochs          368. MSE: 0.04307. Desired-MSE: 0.01000
Epochs          369. MSE: 0.04314. Desired-MSE: 0.01000
Epochs          370. MSE: 0.04319. Desired-MSE: 0.01000
Epochs          371. MSE: 0.04308. Desired-MSE: 0.01000
Epochs          372. MSE: 0.04285. Desired-MSE: 0.01000
Epochs          373. MSE: 0.04294. Desired-MSE: 0.01000
Epochs          374. MSE: 0.04292. Desired-MSE: 0.01000
Epochs          375. MSE: 0.04300. Desired-MSE: 0.01000
Epochs          376. MSE: 0.04285. Desired-MSE: 0.01000
Epochs          377. MSE: 0.04274. Desired-MSE: 0.01000
Epochs          378. MSE: 0.04267. Desired-MSE: 0.01000
Epochs          379. MSE: 0.04278. Desired-MSE: 0.01000
Epochs          380. MSE: 0.04274. Desired-MSE: 0.01000
Epochs          381. MSE: 0.04253. Desired-MSE: 0.01000
Epochs          382. MSE: 0.04249. Desired-MSE: 0.01000
Epochs          383. MSE: 0.04264. Desired-MSE: 0.01000
Epochs          384. MSE: 0.04247. Desired-MSE: 0.01000
Epochs          385. MSE: 0.04248. Desired-MSE: 0.01000
Epochs          386. MSE: 0.04247. Desired-MSE: 0.01000
Epochs          387. MSE: 0.04217. Desired-MSE: 0.01000
Epochs          388. MSE: 0.04227. Desired-MSE: 0.01000
Epochs          389. MSE: 0.04231. Desired-MSE: 0.01000
Epochs          390. MSE: 0.04238. Desired-MSE: 0.01000
Epochs          391. MSE: 0.04233. Desired-MSE: 0.01000
Epochs          392. MSE: 0.04208. Desired-MSE: 0.01000
Epochs          393. MSE: 0.04209. Desired-MSE: 0.01000
Epochs          394. MSE: 0.04217. Desired-MSE: 0.01000
Epochs          395. MSE: 0.04233. Desired-MSE: 0.01000
Epochs          396. MSE: 0.04227. Desired-MSE: 0.01000
Epochs          397. MSE: 0.04196. Desired-MSE: 0.01000
Epochs          398. MSE: 0.04191. Desired-MSE: 0.01000
Epochs          399. MSE: 0.04202. Desired-MSE: 0.01000
Epochs          400. MSE: 0.04208. Desired-MSE: 0.01000
Epochs          401. MSE: 0.04200. Desired-MSE: 0.01000
Epochs          402. MSE: 0.04173. Desired-MSE: 0.01000
Epochs          403. MSE: 0.04170. Desired-MSE: 0.01000
Epochs          404. MSE: 0.04194. Desired-MSE: 0.01000
Epochs          405. MSE: 0.04198. Desired-MSE: 0.01000
Epochs          406. MSE: 0.04178. Desired-MSE: 0.01000
Epochs          407. MSE: 0.04167. Desired-MSE: 0.01000
Epochs          408. MSE: 0.04175. Desired-MSE: 0.01000
Epochs          409. MSE: 0.04176. Desired-MSE: 0.01000
Epochs          410. MSE: 0.04192. Desired-MSE: 0.01000
Epochs          411. MSE: 0.04164. Desired-MSE: 0.01000
Epochs          412. MSE: 0.04147. Desired-MSE: 0.01000
Epochs          413. MSE: 0.04161. Desired-MSE: 0.01000
Epochs          414. MSE: 0.04163. Desired-MSE: 0.01000
Epochs          415. MSE: 0.04164. Desired-MSE: 0.01000
Epochs          416. MSE: 0.04159. Desired-MSE: 0.01000
Epochs          417. MSE: 0.04144. Desired-MSE: 0.01000
Epochs          418. MSE: 0.04139. Desired-MSE: 0.01000
Epochs          419. MSE: 0.04146. Desired-MSE: 0.01000
Epochs          420. MSE: 0.04138. Desired-MSE: 0.01000
Epochs          421. MSE: 0.04128. Desired-MSE: 0.01000
Epochs          422. MSE: 0.04123. Desired-MSE: 0.01000
Epochs          423. MSE: 0.04114. Desired-MSE: 0.01000
Epochs          424. MSE: 0.04128. Desired-MSE: 0.01000
Epochs          425. MSE: 0.04142. Desired-MSE: 0.01000
Epochs          426. MSE: 0.04121. Desired-MSE: 0.01000
Epochs          427. MSE: 0.04091. Desired-MSE: 0.01000
Epochs          428. MSE: 0.04107. Desired-MSE: 0.01000
Epochs          429. MSE: 0.04122. Desired-MSE: 0.01000
Epochs          430. MSE: 0.04106. Desired-MSE: 0.01000
Epochs          431. MSE: 0.04089. Desired-MSE: 0.01000
Epochs          432. MSE: 0.04089. Desired-MSE: 0.01000
Epochs          433. MSE: 0.04100. Desired-MSE: 0.01000
Epochs          434. MSE: 0.04120. Desired-MSE: 0.01000
Epochs          435. MSE: 0.04096. Desired-MSE: 0.01000
Epochs          436. MSE: 0.04065. Desired-MSE: 0.01000
Epochs          437. MSE: 0.04080. Desired-MSE: 0.01000
Epochs          438. MSE: 0.04104. Desired-MSE: 0.01000
Epochs          439. MSE: 0.04091. Desired-MSE: 0.01000
Epochs          440. MSE: 0.04018. Desired-MSE: 0.01000
Epochs          441. MSE: 0.04038. Desired-MSE: 0.01000
Epochs          442. MSE: 0.04080. Desired-MSE: 0.01000
Epochs          443. MSE: 0.04022. Desired-MSE: 0.01000
Epochs          444. MSE: 0.04013. Desired-MSE: 0.01000
Epochs          445. MSE: 0.04067. Desired-MSE: 0.01000
Epochs          446. MSE: 0.04085. Desired-MSE: 0.01000
Epochs          447. MSE: 0.03996. Desired-MSE: 0.01000
Epochs          448. MSE: 0.03984. Desired-MSE: 0.01000
Epochs          449. MSE: 0.04020. Desired-MSE: 0.01000
Epochs          450. MSE: 0.04111. Desired-MSE: 0.01000
Epochs          451. MSE: 0.03996. Desired-MSE: 0.01000
Epochs          452. MSE: 0.03978. Desired-MSE: 0.01000
Epochs          453. MSE: 0.04017. Desired-MSE: 0.01000
Epochs          454. MSE: 0.04056. Desired-MSE: 0.01000
Epochs          455. MSE: 0.03990. Desired-MSE: 0.01000
Epochs          456. MSE: 0.03997. Desired-MSE: 0.01000
Epochs          457. MSE: 0.03958. Desired-MSE: 0.01000
Epochs          458. MSE: 0.03987. Desired-MSE: 0.01000
Epochs          459. MSE: 0.04011. Desired-MSE: 0.01000
Epochs          460. MSE: 0.04066. Desired-MSE: 0.01000
Epochs          461. MSE: 0.03958. Desired-MSE: 0.01000
Epochs          462. MSE: 0.03943. Desired-MSE: 0.01000
Epochs          463. MSE: 0.03965. Desired-MSE: 0.01000
Epochs          464. MSE: 0.03999. Desired-MSE: 0.01000
Epochs          465. MSE: 0.04034. Desired-MSE: 0.01000
Epochs          466. MSE: 0.03969. Desired-MSE: 0.01000
Epochs          467. MSE: 0.03963. Desired-MSE: 0.01000
Epochs          468. MSE: 0.03942. Desired-MSE: 0.01000
Epochs          469. MSE: 0.03985. Desired-MSE: 0.01000
Epochs          470. MSE: 0.04023. Desired-MSE: 0.01000
Epochs          471. MSE: 0.03928. Desired-MSE: 0.01000
Epochs          472. MSE: 0.03906. Desired-MSE: 0.01000
Epochs          473. MSE: 0.03959. Desired-MSE: 0.01000
Epochs          474. MSE: 0.03984. Desired-MSE: 0.01000
Epochs          475. MSE: 0.03917. Desired-MSE: 0.01000
Epochs          476. MSE: 0.03880. Desired-MSE: 0.01000
Epochs          477. MSE: 0.03909. Desired-MSE: 0.01000
Epochs          478. MSE: 0.03978. Desired-MSE: 0.01000
Epochs          479. MSE: 0.03871. Desired-MSE: 0.01000
Epochs          480. MSE: 0.03856. Desired-MSE: 0.01000
Epochs          481. MSE: 0.03885. Desired-MSE: 0.01000
Epochs          482. MSE: 0.03916. Desired-MSE: 0.01000
Epochs          483. MSE: 0.03865. Desired-MSE: 0.01000
Epochs          484. MSE: 0.03874. Desired-MSE: 0.01000
Epochs          485. MSE: 0.03945. Desired-MSE: 0.01000
Epochs          486. MSE: 0.03919. Desired-MSE: 0.01000
Epochs          487. MSE: 0.03857. Desired-MSE: 0.01000
Epochs          488. MSE: 0.03880. Desired-MSE: 0.01000
Epochs          489. MSE: 0.03954. Desired-MSE: 0.01000
Epochs          490. MSE: 0.03852. Desired-MSE: 0.01000
Epochs          491. MSE: 0.03852. Desired-MSE: 0.01000
Epochs          492. MSE: 0.03888. Desired-MSE: 0.01000
Epochs          493. MSE: 0.03893. Desired-MSE: 0.01000
Epochs          494. MSE: 0.03861. Desired-MSE: 0.01000
Epochs          495. MSE: 0.03831. Desired-MSE: 0.01000
Epochs          496. MSE: 0.03881. Desired-MSE: 0.01000
Epochs          497. MSE: 0.03828. Desired-MSE: 0.01000
Epochs          498. MSE: 0.03837. Desired-MSE: 0.01000
Epochs          499. MSE: 0.03836. Desired-MSE: 0.01000
Epochs          500. MSE: 0.03870. Desired-MSE: 0.01000
MSE on validation set: 0.135849
MSE on training set: 0.0383436
