1, 0.169643, 0.01
2, 0.168346, 0.01
3, 0.1619, 0.01
4, 0.161199, 0.01
5, 0.16186, 0.01
6, 0.164999, 0.01
7, 0.160143, 0.01
8, 0.157237, 0.01
9, 0.150678, 0.01
10, 0.144462, 0.01
11, 0.162087, 0.01
12, 0.155516, 0.01
13, 0.150077, 0.01
14, 0.141479, 0.01
15, 0.153532, 0.01
16, 0.152581, 0.01
17, 0.150256, 0.01
18, 0.147875, 0.01
19, 0.14322, 0.01
20, 0.142784, 0.01
21, 0.139425, 0.01
22, 0.148059, 0.01
23, 0.144716, 0.01
24, 0.140612, 0.01
25, 0.14938, 0.01
26, 0.14025, 0.01
27, 0.1445, 0.01
28, 0.13928, 0.01
29, 0.132556, 0.01
30, 0.133718, 0.01
31, 0.13787, 0.01
32, 0.139825, 0.01
33, 0.135444, 0.01
34, 0.14014, 0.01
35, 0.139893, 0.01
36, 0.138984, 0.01
37, 0.138276, 0.01
38, 0.144356, 0.01
39, 0.132958, 0.01
40, 0.141607, 0.01
41, 0.143219, 0.01
42, 0.132518, 0.01
43, 0.138604, 0.01
44, 0.135022, 0.01
45, 0.133843, 0.01
46, 0.134052, 0.01
47, 0.13648, 0.01
48, 0.132919, 0.01
49, 0.127644, 0.01
50, 0.125828, 0.01
51, 0.140621, 0.01
52, 0.133628, 0.01
53, 0.125295, 0.01
54, 0.138271, 0.01
55, 0.130107, 0.01
56, 0.130922, 0.01
57, 0.128245, 0.01
58, 0.137201, 0.01
59, 0.121134, 0.01
60, 0.137525, 0.01
61, 0.127722, 0.01
62, 0.123741, 0.01
63, 0.117435, 0.01
64, 0.119967, 0.01
65, 0.12248, 0.01
66, 0.127406, 0.01
67, 0.128468, 0.01
68, 0.122507, 0.01
69, 0.127936, 0.01
70, 0.125125, 0.01
71, 0.129713, 0.01
72, 0.123834, 0.01
73, 0.115977, 0.01
74, 0.119357, 0.01
75, 0.117744, 0.01
76, 0.118863, 0.01
77, 0.125389, 0.01
78, 0.129859, 0.01
79, 0.131671, 0.01
80, 0.115585, 0.01
81, 0.13079, 0.01
82, 0.121189, 0.01
83, 0.122641, 0.01
84, 0.120559, 0.01
85, 0.115837, 0.01
86, 0.128148, 0.01
87, 0.121478, 0.01
88, 0.121195, 0.01
89, 0.125392, 0.01
90, 0.111212, 0.01
91, 0.125648, 0.01
92, 0.11609, 0.01
93, 0.116864, 0.01
94, 0.119221, 0.01
95, 0.118019, 0.01
96, 0.127861, 0.01
97, 0.119656, 0.01
98, 0.120846, 0.01
99, 0.11867, 0.01
100, 0.123491, 0.01
101, 0.114737, 0.01
102, 0.114694, 0.01
103, 0.122261, 0.01
104, 0.110693, 0.01
105, 0.110768, 0.01
106, 0.113313, 0.01
107, 0.107199, 0.01
108, 0.113355, 0.01
109, 0.113592, 0.01
110, 0.110111, 0.01
111, 0.109928, 0.01
112, 0.109112, 0.01
113, 0.113022, 0.01
114, 0.109698, 0.01
115, 0.117893, 0.01
116, 0.120027, 0.01
117, 0.118423, 0.01
118, 0.117738, 0.01
119, 0.121369, 0.01
120, 0.107626, 0.01
121, 0.12038, 0.01
122, 0.117708, 0.01
123, 0.115427, 0.01
124, 0.118795, 0.01
125, 0.111358, 0.01
126, 0.117855, 0.01
127, 0.110856, 0.01
128, 0.109077, 0.01
129, 0.11578, 0.01
130, 0.12069, 0.01
131, 0.111294, 0.01
132, 0.112691, 0.01
133, 0.116128, 0.01
134, 0.113171, 0.01
135, 0.131417, 0.01
136, 0.120239, 0.01
137, 0.117846, 0.01
138, 0.113882, 0.01
139, 0.111462, 0.01
140, 0.119966, 0.01
141, 0.122596, 0.01
142, 0.11388, 0.01
143, 0.113288, 0.01
144, 0.112904, 0.01
145, 0.112706, 0.01
146, 0.109966, 0.01
147, 0.118084, 0.01
148, 0.11374, 0.01
149, 0.108416, 0.01
150, 0.113036, 0.01
151, 0.110065, 0.01
152, 0.116718, 0.01
153, 0.111854, 0.01
154, 0.111785, 0.01
155, 0.112527, 0.01
156, 0.105004, 0.01
157, 0.11216, 0.01
158, 0.11169, 0.01
159, 0.129357, 0.01
160, 0.116051, 0.01
161, 0.118002, 0.01
162, 0.112102, 0.01
163, 0.119755, 0.01
164, 0.116129, 0.01
165, 0.106118, 0.01
166, 0.121943, 0.01
167, 0.11366, 0.01
168, 0.116869, 0.01
169, 0.117222, 0.01
170, 0.112222, 0.01
171, 0.111329, 0.01
172, 0.107642, 0.01
173, 0.112627, 0.01
174, 0.113733, 0.01
175, 0.11156, 0.01
176, 0.116434, 0.01
177, 0.108102, 0.01
178, 0.110343, 0.01
179, 0.103389, 0.01
180, 0.110231, 0.01
181, 0.111297, 0.01
182, 0.103373, 0.01
183, 0.110127, 0.01
184, 0.115942, 0.01
185, 0.107653, 0.01
186, 0.113173, 0.01
187, 0.110663, 0.01
188, 0.112442, 0.01
189, 0.112313, 0.01
190, 0.112909, 0.01
191, 0.113938, 0.01
192, 0.114643, 0.01
193, 0.107865, 0.01
194, 0.102159, 0.01
195, 0.103443, 0.01
196, 0.106659, 0.01
197, 0.0996476, 0.01
198, 0.109654, 0.01
199, 0.104182, 0.01
200, 0.108556, 0.01
201, 0.104966, 0.01
202, 0.103518, 0.01
203, 0.109846, 0.01
204, 0.111249, 0.01
205, 0.10174, 0.01
206, 0.106029, 0.01
207, 0.103189, 0.01
208, 0.105913, 0.01
209, 0.109926, 0.01
210, 0.119292, 0.01
211, 0.107087, 0.01
212, 0.107155, 0.01
213, 0.110728, 0.01
214, 0.111115, 0.01
215, 0.0981926, 0.01
216, 0.112671, 0.01
217, 0.109563, 0.01
218, 0.110953, 0.01
219, 0.113904, 0.01
220, 0.108499, 0.01
221, 0.121153, 0.01
222, 0.111518, 0.01
223, 0.110324, 0.01
224, 0.102068, 0.01
225, 0.104109, 0.01
226, 0.107936, 0.01
227, 0.0993372, 0.01
228, 0.104011, 0.01
229, 0.111157, 0.01
230, 0.109837, 0.01
231, 0.109425, 0.01
232, 0.104807, 0.01
233, 0.112802, 0.01
234, 0.103699, 0.01
235, 0.110448, 0.01
236, 0.104327, 0.01
237, 0.106155, 0.01
238, 0.112921, 0.01
239, 0.116831, 0.01
240, 0.111559, 0.01
241, 0.113644, 0.01
242, 0.101316, 0.01
243, 0.108794, 0.01
244, 0.101297, 0.01
245, 0.112352, 0.01
246, 0.103224, 0.01
247, 0.103696, 0.01
248, 0.100373, 0.01
249, 0.10291, 0.01
250, 0.112031, 0.01
251, 0.107785, 0.01
252, 0.105885, 0.01
253, 0.103185, 0.01
254, 0.104456, 0.01
255, 0.11228, 0.01
256, 0.108954, 0.01
257, 0.109588, 0.01
258, 0.104333, 0.01
259, 0.104705, 0.01
260, 0.110206, 0.01
261, 0.112497, 0.01
262, 0.114864, 0.01
263, 0.101974, 0.01
264, 0.108569, 0.01
265, 0.11076, 0.01
266, 0.107787, 0.01
267, 0.099623, 0.01
268, 0.095953, 0.01
269, 0.108087, 0.01
270, 0.112385, 0.01
271, 0.115487, 0.01
272, 0.115929, 0.01
273, 0.106524, 0.01
274, 0.111578, 0.01
275, 0.11044, 0.01
276, 0.107926, 0.01
277, 0.102078, 0.01
278, 0.100672, 0.01
279, 0.104127, 0.01
280, 0.100376, 0.01
281, 0.105253, 0.01
282, 0.0971773, 0.01
283, 0.0994321, 0.01
284, 0.108732, 0.01
285, 0.107352, 0.01
286, 0.107147, 0.01
287, 0.109682, 0.01
288, 0.0963122, 0.01
289, 0.102469, 0.01
290, 0.100214, 0.01
291, 0.104435, 0.01
292, 0.109685, 0.01
293, 0.110479, 0.01
294, 0.105457, 0.01
295, 0.102801, 0.01
296, 0.104253, 0.01
297, 0.103826, 0.01
298, 0.105485, 0.01
299, 0.103115, 0.01
300, 0.107212, 0.01
301, 0.102114, 0.01
302, 0.101132, 0.01
303, 0.103209, 0.01
304, 0.096661, 0.01
305, 0.10538, 0.01
306, 0.107103, 0.01
307, 0.107159, 0.01
308, 0.11609, 0.01
309, 0.101898, 0.01
310, 0.111638, 0.01
311, 0.102031, 0.01
312, 0.101951, 0.01
313, 0.107229, 0.01
314, 0.106045, 0.01
315, 0.107672, 0.01
316, 0.108147, 0.01
317, 0.112458, 0.01
318, 0.106185, 0.01
319, 0.108132, 0.01
320, 0.108206, 0.01
321, 0.108226, 0.01
322, 0.112004, 0.01
323, 0.109207, 0.01
324, 0.106365, 0.01
325, 0.109468, 0.01
326, 0.100316, 0.01
327, 0.107782, 0.01
328, 0.106068, 0.01
329, 0.10202, 0.01
330, 0.106309, 0.01
331, 0.102671, 0.01
332, 0.101522, 0.01
333, 0.0981794, 0.01
334, 0.105366, 0.01
335, 0.102857, 0.01
336, 0.104374, 0.01
337, 0.0991239, 0.01
338, 0.103565, 0.01
339, 0.111586, 0.01
340, 0.103462, 0.01
341, 0.102176, 0.01
342, 0.0987742, 0.01
343, 0.0966306, 0.01
344, 0.0955342, 0.01
345, 0.104811, 0.01
346, 0.0997484, 0.01
347, 0.106282, 0.01
348, 0.0978292, 0.01
349, 0.0983946, 0.01
350, 0.107426, 0.01
351, 0.107546, 0.01
352, 0.0996754, 0.01
353, 0.110278, 0.01
354, 0.102975, 0.01
355, 0.105561, 0.01
356, 0.0990757, 0.01
357, 0.0943822, 0.01
358, 0.101663, 0.01
359, 0.092385, 0.01
360, 0.101854, 0.01
361, 0.100608, 0.01
362, 0.104902, 0.01
363, 0.0992357, 0.01
364, 0.108818, 0.01
365, 0.105122, 0.01
366, 0.1026, 0.01
367, 0.105494, 0.01
368, 0.103073, 0.01
369, 0.0963062, 0.01
370, 0.0995667, 0.01
371, 0.0979388, 0.01
372, 0.0991312, 0.01
373, 0.100171, 0.01
374, 0.0992729, 0.01
375, 0.10076, 0.01
376, 0.102629, 0.01
377, 0.110133, 0.01
378, 0.0908778, 0.01
379, 0.0998142, 0.01
380, 0.0967437, 0.01
381, 0.0972421, 0.01
382, 0.10563, 0.01
383, 0.103589, 0.01
384, 0.101834, 0.01
385, 0.106248, 0.01
386, 0.101598, 0.01
387, 0.100116, 0.01
388, 0.102498, 0.01
389, 0.106667, 0.01
390, 0.112242, 0.01
391, 0.109167, 0.01
392, 0.0993599, 0.01
393, 0.105896, 0.01
394, 0.105922, 0.01
395, 0.0941997, 0.01
396, 0.0911051, 0.01
397, 0.0940925, 0.01
398, 0.0996918, 0.01
399, 0.0938553, 0.01
400, 0.0989685, 0.01
401, 0.0983058, 0.01
402, 0.101631, 0.01
403, 0.101094, 0.01
404, 0.0969765, 0.01
405, 0.101183, 0.01
406, 0.0971327, 0.01
407, 0.0943881, 0.01
408, 0.102014, 0.01
409, 0.102262, 0.01
410, 0.0923162, 0.01
411, 0.101265, 0.01
412, 0.0983358, 0.01
413, 0.092566, 0.01
414, 0.102165, 0.01
415, 0.100888, 0.01
416, 0.0967509, 0.01
417, 0.100956, 0.01
418, 0.101532, 0.01
419, 0.103267, 0.01
420, 0.0965573, 0.01
421, 0.099516, 0.01
422, 0.0968782, 0.01
423, 0.0985493, 0.01
424, 0.0929844, 0.01
425, 0.098626, 0.01
426, 0.10037, 0.01
427, 0.10106, 0.01
428, 0.0963678, 0.01
429, 0.0964762, 0.01
430, 0.102398, 0.01
431, 0.100783, 0.01
432, 0.0955278, 0.01
433, 0.101245, 0.01
434, 0.101687, 0.01
435, 0.10502, 0.01
436, 0.0968273, 0.01
437, 0.0973963, 0.01
438, 0.101253, 0.01
439, 0.0985531, 0.01
440, 0.0958684, 0.01
441, 0.0966762, 0.01
442, 0.101035, 0.01
443, 0.0982914, 0.01
444, 0.0960564, 0.01
445, 0.0942921, 0.01
446, 0.0913925, 0.01
447, 0.090898, 0.01
448, 0.0901373, 0.01
449, 0.101124, 0.01
450, 0.0945528, 0.01
451, 0.0987367, 0.01
452, 0.0983545, 0.01
453, 0.0990627, 0.01
454, 0.0950987, 0.01
455, 0.0928637, 0.01
456, 0.0945408, 0.01
457, 0.102856, 0.01
458, 0.0991509, 0.01
459, 0.105597, 0.01
460, 0.11373, 0.01
461, 0.0969885, 0.01
462, 0.102691, 0.01
463, 0.0996615, 0.01
464, 0.0957864, 0.01
465, 0.103022, 0.01
466, 0.0963681, 0.01
467, 0.10315, 0.01
468, 0.100661, 0.01
469, 0.0937654, 0.01
470, 0.101096, 0.01
471, 0.0980597, 0.01
472, 0.0941268, 0.01
473, 0.0933934, 0.01
474, 0.0913864, 0.01
475, 0.0926711, 0.01
476, 0.094058, 0.01
477, 0.104298, 0.01
478, 0.10272, 0.01
479, 0.101914, 0.01
480, 0.0993952, 0.01
481, 0.102393, 0.01
482, 0.0919641, 0.01
483, 0.0926193, 0.01
484, 0.104675, 0.01
485, 0.106768, 0.01
486, 0.0940755, 0.01
487, 0.0916406, 0.01
488, 0.106768, 0.01
489, 0.103, 0.01
490, 0.105034, 0.01
491, 0.0901465, 0.01
492, 0.105664, 0.01
493, 0.109976, 0.01
494, 0.094195, 0.01
495, 0.102938, 0.01
496, 0.103057, 0.01
497, 0.107167, 0.01
498, 0.100814, 0.01
499, 0.0999856, 0.01
500, 0.101463, 0.01
