1, 0.133516, 0.01
2, 0.131451, 0.01
3, 0.13562, 0.01
4, 0.132271, 0.01
5, 0.13027, 0.01
6, 0.129835, 0.01
7, 0.134734, 0.01
8, 0.140899, 0.01
9, 0.134545, 0.01
10, 0.137695, 0.01
11, 0.13737, 0.01
12, 0.132394, 0.01
13, 0.135552, 0.01
14, 0.122256, 0.01
15, 0.133579, 0.01
16, 0.134273, 0.01
17, 0.132183, 0.01
18, 0.132027, 0.01
19, 0.133147, 0.01
20, 0.127269, 0.01
21, 0.131356, 0.01
22, 0.130003, 0.01
23, 0.13279, 0.01
24, 0.135154, 0.01
25, 0.131139, 0.01
26, 0.132496, 0.01
27, 0.129765, 0.01
28, 0.125082, 0.01
29, 0.127875, 0.01
30, 0.122478, 0.01
31, 0.128786, 0.01
32, 0.119719, 0.01
33, 0.128409, 0.01
34, 0.126956, 0.01
35, 0.117789, 0.01
36, 0.1264, 0.01
37, 0.117121, 0.01
38, 0.126385, 0.01
39, 0.128173, 0.01
40, 0.122368, 0.01
41, 0.119927, 0.01
42, 0.118512, 0.01
43, 0.122336, 0.01
44, 0.122733, 0.01
45, 0.109047, 0.01
46, 0.110807, 0.01
47, 0.120216, 0.01
48, 0.122815, 0.01
49, 0.110783, 0.01
50, 0.114027, 0.01
51, 0.118501, 0.01
52, 0.116806, 0.01
53, 0.111072, 0.01
54, 0.121412, 0.01
55, 0.119008, 0.01
56, 0.115086, 0.01
57, 0.11664, 0.01
58, 0.118219, 0.01
59, 0.112251, 0.01
60, 0.124587, 0.01
61, 0.11738, 0.01
62, 0.100259, 0.01
63, 0.112914, 0.01
64, 0.116059, 0.01
65, 0.117195, 0.01
66, 0.105805, 0.01
67, 0.117483, 0.01
68, 0.115097, 0.01
69, 0.11625, 0.01
70, 0.126704, 0.01
71, 0.103772, 0.01
72, 0.110587, 0.01
73, 0.102747, 0.01
74, 0.106094, 0.01
75, 0.102489, 0.01
76, 0.10519, 0.01
77, 0.105323, 0.01
78, 0.108893, 0.01
79, 0.106208, 0.01
80, 0.105077, 0.01
81, 0.103721, 0.01
82, 0.11062, 0.01
83, 0.11065, 0.01
84, 0.125228, 0.01
85, 0.105773, 0.01
86, 0.115973, 0.01
87, 0.0969359, 0.01
88, 0.107316, 0.01
89, 0.107817, 0.01
90, 0.102396, 0.01
91, 0.116236, 0.01
92, 0.113533, 0.01
93, 0.107657, 0.01
94, 0.0988902, 0.01
95, 0.108899, 0.01
96, 0.101284, 0.01
97, 0.116454, 0.01
98, 0.104405, 0.01
99, 0.116356, 0.01
100, 0.10587, 0.01
101, 0.104648, 0.01
102, 0.103522, 0.01
103, 0.109974, 0.01
104, 0.109139, 0.01
105, 0.100987, 0.01
106, 0.0973443, 0.01
107, 0.103529, 0.01
108, 0.0998119, 0.01
109, 0.102023, 0.01
110, 0.100562, 0.01
111, 0.0927502, 0.01
112, 0.0994196, 0.01
113, 0.0972286, 0.01
114, 0.115834, 0.01
115, 0.105483, 0.01
116, 0.0869591, 0.01
117, 0.0972808, 0.01
118, 0.0955228, 0.01
119, 0.104834, 0.01
120, 0.108836, 0.01
121, 0.0954823, 0.01
122, 0.110484, 0.01
123, 0.115131, 0.01
124, 0.100535, 0.01
125, 0.110558, 0.01
126, 0.100955, 0.01
127, 0.0981306, 0.01
128, 0.0956027, 0.01
129, 0.0996688, 0.01
130, 0.110593, 0.01
131, 0.104517, 0.01
132, 0.0993938, 0.01
133, 0.0985907, 0.01
134, 0.102626, 0.01
135, 0.111421, 0.01
136, 0.106131, 0.01
137, 0.0992685, 0.01
138, 0.100766, 0.01
139, 0.0933687, 0.01
140, 0.0932728, 0.01
141, 0.101634, 0.01
142, 0.0969852, 0.01
143, 0.108228, 0.01
144, 0.100248, 0.01
145, 0.0973986, 0.01
146, 0.101716, 0.01
147, 0.100598, 0.01
148, 0.0916899, 0.01
149, 0.100156, 0.01
150, 0.0982491, 0.01
151, 0.100846, 0.01
152, 0.103839, 0.01
153, 0.0948569, 0.01
154, 0.107169, 0.01
155, 0.090078, 0.01
156, 0.100099, 0.01
157, 0.0974681, 0.01
158, 0.0925404, 0.01
159, 0.0920028, 0.01
160, 0.103571, 0.01
161, 0.0935524, 0.01
162, 0.0908818, 0.01
163, 0.0913071, 0.01
164, 0.0942207, 0.01
165, 0.0907309, 0.01
166, 0.10689, 0.01
167, 0.0922195, 0.01
168, 0.086066, 0.01
169, 0.0999976, 0.01
170, 0.0943957, 0.01
171, 0.0958237, 0.01
172, 0.0960925, 0.01
173, 0.0957948, 0.01
174, 0.0922768, 0.01
175, 0.104905, 0.01
176, 0.099546, 0.01
177, 0.0911981, 0.01
178, 0.106841, 0.01
179, 0.102839, 0.01
180, 0.0972677, 0.01
181, 0.109068, 0.01
182, 0.100018, 0.01
183, 0.0991368, 0.01
184, 0.0981858, 0.01
185, 0.0881065, 0.01
186, 0.0956191, 0.01
187, 0.0903834, 0.01
188, 0.0849375, 0.01
189, 0.08912, 0.01
190, 0.0955673, 0.01
191, 0.0910186, 0.01
192, 0.108854, 0.01
193, 0.103244, 0.01
194, 0.0924984, 0.01
195, 0.100204, 0.01
196, 0.0830143, 0.01
197, 0.0954781, 0.01
198, 0.0914539, 0.01
199, 0.0914725, 0.01
200, 0.0909077, 0.01
201, 0.0939226, 0.01
202, 0.0998653, 0.01
203, 0.0972063, 0.01
204, 0.0958764, 0.01
205, 0.0892596, 0.01
206, 0.0976419, 0.01
207, 0.0899626, 0.01
208, 0.0897363, 0.01
209, 0.0974301, 0.01
210, 0.0858902, 0.01
211, 0.0806326, 0.01
212, 0.0852792, 0.01
213, 0.0876729, 0.01
214, 0.0839869, 0.01
215, 0.0835779, 0.01
216, 0.0876443, 0.01
217, 0.0962637, 0.01
218, 0.0977816, 0.01
219, 0.0957644, 0.01
220, 0.0911616, 0.01
221, 0.0918479, 0.01
222, 0.0957762, 0.01
223, 0.0840912, 0.01
224, 0.0897678, 0.01
225, 0.088061, 0.01
226, 0.0954345, 0.01
227, 0.0841819, 0.01
228, 0.089073, 0.01
229, 0.0937784, 0.01
230, 0.093025, 0.01
231, 0.0825165, 0.01
232, 0.0916651, 0.01
233, 0.0935172, 0.01
234, 0.0845334, 0.01
235, 0.0890869, 0.01
236, 0.0885351, 0.01
237, 0.0833548, 0.01
238, 0.0805263, 0.01
239, 0.0877773, 0.01
240, 0.0897329, 0.01
241, 0.0833855, 0.01
242, 0.0928506, 0.01
243, 0.0965531, 0.01
244, 0.0888264, 0.01
245, 0.0818448, 0.01
246, 0.087102, 0.01
247, 0.0855057, 0.01
248, 0.0944952, 0.01
249, 0.0986566, 0.01
250, 0.0919488, 0.01
251, 0.0791721, 0.01
252, 0.0894591, 0.01
253, 0.0929645, 0.01
254, 0.0921761, 0.01
255, 0.0925793, 0.01
256, 0.100042, 0.01
257, 0.0925732, 0.01
258, 0.0970507, 0.01
259, 0.090186, 0.01
260, 0.0874244, 0.01
261, 0.0958819, 0.01
262, 0.0935315, 0.01
263, 0.0957481, 0.01
264, 0.0895519, 0.01
265, 0.0906372, 0.01
266, 0.0861012, 0.01
267, 0.0845996, 0.01
268, 0.0922033, 0.01
269, 0.0841063, 0.01
270, 0.0971782, 0.01
271, 0.084935, 0.01
272, 0.0819288, 0.01
273, 0.0834128, 0.01
274, 0.0844735, 0.01
275, 0.0870512, 0.01
276, 0.0845295, 0.01
277, 0.0997975, 0.01
278, 0.0960979, 0.01
279, 0.088158, 0.01
280, 0.0855244, 0.01
281, 0.0809431, 0.01
282, 0.0816551, 0.01
283, 0.0886591, 0.01
284, 0.0862608, 0.01
285, 0.0825266, 0.01
286, 0.0820302, 0.01
287, 0.0812235, 0.01
288, 0.0902107, 0.01
289, 0.0757111, 0.01
290, 0.0758179, 0.01
291, 0.0759664, 0.01
292, 0.0820783, 0.01
293, 0.0836758, 0.01
294, 0.0937533, 0.01
295, 0.0867067, 0.01
296, 0.0870783, 0.01
297, 0.0902109, 0.01
298, 0.0862759, 0.01
299, 0.0793234, 0.01
300, 0.0870364, 0.01
301, 0.0824674, 0.01
302, 0.0869105, 0.01
303, 0.0864864, 0.01
304, 0.0773622, 0.01
305, 0.082659, 0.01
306, 0.0745501, 0.01
307, 0.0785265, 0.01
308, 0.0877757, 0.01
309, 0.0887072, 0.01
310, 0.0809511, 0.01
311, 0.083281, 0.01
312, 0.0826322, 0.01
313, 0.0763467, 0.01
314, 0.0886768, 0.01
315, 0.0894318, 0.01
316, 0.0848701, 0.01
317, 0.0846293, 0.01
318, 0.0830994, 0.01
319, 0.0871536, 0.01
320, 0.0712218, 0.01
321, 0.0794714, 0.01
322, 0.0749532, 0.01
323, 0.0802392, 0.01
324, 0.0754513, 0.01
325, 0.075526, 0.01
326, 0.0759029, 0.01
327, 0.0847585, 0.01
328, 0.0896338, 0.01
329, 0.0844866, 0.01
330, 0.0826087, 0.01
331, 0.0777672, 0.01
332, 0.0754046, 0.01
333, 0.085538, 0.01
334, 0.0852946, 0.01
335, 0.0821384, 0.01
336, 0.0794617, 0.01
337, 0.0873236, 0.01
338, 0.0815426, 0.01
339, 0.0766333, 0.01
340, 0.0821116, 0.01
341, 0.0802506, 0.01
342, 0.0764522, 0.01
343, 0.0762772, 0.01
344, 0.074704, 0.01
345, 0.0815049, 0.01
346, 0.0810178, 0.01
347, 0.0788718, 0.01
348, 0.0733811, 0.01
349, 0.0715026, 0.01
350, 0.0771721, 0.01
351, 0.0904539, 0.01
352, 0.0842132, 0.01
353, 0.0777459, 0.01
354, 0.0788867, 0.01
355, 0.07973, 0.01
356, 0.0751891, 0.01
357, 0.090061, 0.01
358, 0.086049, 0.01
359, 0.0801422, 0.01
360, 0.0790113, 0.01
361, 0.0768483, 0.01
362, 0.0802605, 0.01
363, 0.0732185, 0.01
364, 0.0760053, 0.01
365, 0.0790409, 0.01
366, 0.0799242, 0.01
367, 0.0732867, 0.01
368, 0.0731989, 0.01
369, 0.0786481, 0.01
370, 0.0780675, 0.01
371, 0.0879285, 0.01
372, 0.0843401, 0.01
373, 0.0855993, 0.01
374, 0.0742368, 0.01
375, 0.0762932, 0.01
376, 0.072561, 0.01
377, 0.0762342, 0.01
378, 0.0763092, 0.01
379, 0.0828186, 0.01
380, 0.0783319, 0.01
381, 0.0718814, 0.01
382, 0.0768177, 0.01
383, 0.0713206, 0.01
384, 0.0703957, 0.01
385, 0.0712871, 0.01
386, 0.0742252, 0.01
387, 0.0726111, 0.01
388, 0.0770929, 0.01
389, 0.0743969, 0.01
390, 0.0729147, 0.01
391, 0.0775762, 0.01
392, 0.0774707, 0.01
393, 0.0790802, 0.01
394, 0.0798372, 0.01
395, 0.0781927, 0.01
396, 0.075748, 0.01
397, 0.0774957, 0.01
398, 0.0910651, 0.01
399, 0.0825467, 0.01
400, 0.0817938, 0.01
401, 0.0847262, 0.01
402, 0.0744655, 0.01
403, 0.0815047, 0.01
404, 0.0737179, 0.01
405, 0.0733725, 0.01
406, 0.080643, 0.01
407, 0.0840207, 0.01
408, 0.0884105, 0.01
409, 0.0744192, 0.01
410, 0.07722, 0.01
411, 0.0709883, 0.01
412, 0.0813649, 0.01
413, 0.0785076, 0.01
414, 0.07602, 0.01
415, 0.0737549, 0.01
416, 0.0702982, 0.01
417, 0.077248, 0.01
418, 0.0785481, 0.01
419, 0.0763182, 0.01
420, 0.0845831, 0.01
421, 0.0773688, 0.01
422, 0.0786249, 0.01
423, 0.0738232, 0.01
424, 0.0814213, 0.01
425, 0.0780948, 0.01
426, 0.0743524, 0.01
427, 0.0820751, 0.01
428, 0.0845082, 0.01
429, 0.0754415, 0.01
430, 0.0818076, 0.01
431, 0.075184, 0.01
432, 0.0738789, 0.01
433, 0.0740034, 0.01
434, 0.0850718, 0.01
435, 0.0801451, 0.01
436, 0.0819883, 0.01
437, 0.0810935, 0.01
438, 0.0877172, 0.01
439, 0.0874595, 0.01
440, 0.0894585, 0.01
441, 0.0887917, 0.01
442, 0.0856995, 0.01
443, 0.0956842, 0.01
444, 0.085104, 0.01
445, 0.0817318, 0.01
446, 0.0910519, 0.01
447, 0.080606, 0.01
448, 0.0758886, 0.01
449, 0.0780367, 0.01
450, 0.0756936, 0.01
451, 0.0736348, 0.01
452, 0.0920961, 0.01
453, 0.0823367, 0.01
454, 0.0768046, 0.01
455, 0.0736536, 0.01
456, 0.0735658, 0.01
457, 0.0737147, 0.01
458, 0.0864785, 0.01
459, 0.0914688, 0.01
460, 0.0808047, 0.01
461, 0.0761908, 0.01
462, 0.07554, 0.01
463, 0.0817304, 0.01
464, 0.0730778, 0.01
465, 0.0798978, 0.01
466, 0.0768934, 0.01
467, 0.0818899, 0.01
468, 0.0765931, 0.01
469, 0.0745158, 0.01
470, 0.0765961, 0.01
471, 0.0848629, 0.01
472, 0.0772293, 0.01
473, 0.0747333, 0.01
474, 0.0739107, 0.01
475, 0.0873625, 0.01
476, 0.0769167, 0.01
477, 0.0743753, 0.01
478, 0.0718692, 0.01
479, 0.073128, 0.01
480, 0.0758185, 0.01
481, 0.0784018, 0.01
482, 0.0751648, 0.01
483, 0.0747767, 0.01
484, 0.0724369, 0.01
485, 0.0682564, 0.01
486, 0.0778047, 0.01
487, 0.0783631, 0.01
488, 0.0834045, 0.01
489, 0.0764014, 0.01
490, 0.0786013, 0.01
491, 0.0733585, 0.01
492, 0.0726116, 0.01
493, 0.0829917, 0.01
494, 0.0762758, 0.01
495, 0.0818178, 0.01
496, 0.0780272, 0.01
497, 0.0822606, 0.01
498, 0.0751814, 0.01
499, 0.0745844, 0.01
500, 0.0752692, 0.01
