player 1, player 2, player 3, player 4
41638, 7854, 42641, 7867 
41973, 7741, 42575, 7711 
41656, 7938, 42584, 7822 
41622, 7893, 42676, 7809 
41982, 7799, 42484, 7735 
41863, 7834, 42578, 7725 
42167, 7771, 42505, 7557 
41837, 7733, 42678, 7752 
42131, 7788, 42287, 7794 
41949, 7757, 42428, 7866 
