player 1, player 2, player 3, player 4
28585, 21203, 29018, 21194 
28549, 21164, 29114, 21173 
28460, 21293, 29052, 21195 
28520, 21215, 28938, 21327 
28530, 21211, 29031, 21228 
28201, 21373, 28989, 21437 
28614, 21149, 28999, 21238 
28459, 21387, 28953, 21201 
28450, 21188, 28929, 21433 
28341, 21001, 29059, 21599 
