0, 0.26, 0.203067, 0.152
1, 0.272, 0.198667, 0.128
2, 0.3, 0.2076, 0.124
3, 0.28, 0.2088, 0.116
4, 0.276, 0.2044, 0.152
5, 0.276, 0.218267, 0.144
6, 0.28, 0.218133, 0.152
7, 0.288, 0.201867, 0.088
8, 0.28, 0.2032, 0.116
9, 0.284, 0.2096, 0.136
10, 0.276, 0.2168, 0.136
11, 0.296, 0.219867, 0.152
12, 0.292, 0.2116, 0.112
13, 0.276, 0.2124, 0.116
14, 0.312, 0.223333, 0.136
15, 0.312, 0.215867, 0.152
16, 0.296, 0.205733, 0.144
17, 0.272, 0.219733, 0.148
18, 0.288, 0.2152, 0.164
19, 0.288, 0.218667, 0.156
20, 0.28, 0.217733, 0.148
21, 0.316, 0.233467, 0.136
22, 0.272, 0.228, 0.164
23, 0.312, 0.224533, 0.152
24, 0.3, 0.2452, 0.172
25, 0.288, 0.234533, 0.136
26, 0.32, 0.217467, 0.152
27, 0.3, 0.220133, 0.14
28, 0.272, 0.221467, 0.152
29, 0.296, 0.218933, 0.172
30, 0.296, 0.224, 0.132
31, 0.276, 0.226, 0.136
32, 0.288, 0.229867, 0.164
33, 0.292, 0.230133, 0.164
34, 0.3, 0.2348, 0.168
35, 0.272, 0.2316, 0.18
36, 0.296, 0.220667, 0.172
37, 0.288, 0.2248, 0.132
38, 0.304, 0.221733, 0.14
39, 0.3, 0.236267, 0.156
40, 0.316, 0.225733, 0.144
41, 0.292, 0.2308, 0.152
42, 0.284, 0.229867, 0.152
43, 0.28, 0.2288, 0.196
44, 0.304, 0.238, 0.172
45, 0.312, 0.226, 0.116
46, 0.332, 0.230267, 0.132
47, 0.288, 0.2272, 0.14
48, 0.284, 0.228533, 0.144
49, 0.3, 0.235067, 0.168
50, 0.308, 0.2296, 0.152
51, 0.332, 0.249333, 0.172
52, 0.3, 0.239067, 0.172
53, 0.312, 0.239467, 0.192
54, 0.32, 0.242267, 0.176
55, 0.3, 0.249333, 0.18
56, 0.3, 0.250933, 0.148
57, 0.304, 0.239067, 0.156
58, 0.332, 0.238, 0.164
59, 0.296, 0.249733, 0.18
60, 0.328, 0.2504, 0.132
61, 0.356, 0.261067, 0.204
62, 0.332, 0.245867, 0.164
63, 0.324, 0.252267, 0.132
64, 0.36, 0.259067, 0.192
65, 0.312, 0.261333, 0.208
66, 0.304, 0.2528, 0.176
67, 0.308, 0.247867, 0.176
68, 0.324, 0.253733, 0.184
69, 0.336, 0.2512, 0.184
70, 0.32, 0.255733, 0.188
71, 0.3, 0.255067, 0.184
72, 0.32, 0.254267, 0.18
73, 0.324, 0.257333, 0.208
74, 0.328, 0.254533, 0.176
75, 0.324, 0.243067, 0.148
76, 0.308, 0.2484, 0.196
77, 0.324, 0.259067, 0.2
78, 0.312, 0.249467, 0.176
79, 0.368, 0.258533, 0.172
80, 0.344, 0.263333, 0.192
81, 0.304, 0.262267, 0.2
82, 0.324, 0.255333, 0.136
83, 0.34, 0.264933, 0.212
84, 0.308, 0.2644, 0.172
85, 0.348, 0.277733, 0.22
86, 0.332, 0.2604, 0.172
87, 0.332, 0.263333, 0.168
88, 0.336, 0.264133, 0.176
89, 0.324, 0.263867, 0.196
90, 0.3, 0.256933, 0.196
91, 0.316, 0.259733, 0.208
92, 0.332, 0.2692, 0.184
93, 0.328, 0.266133, 0.208
94, 0.368, 0.264667, 0.168
95, 0.324, 0.2552, 0.212
96, 0.336, 0.260667, 0.204
97, 0.328, 0.260933, 0.212
98, 0.348, 0.2724, 0.192
99, 0.308, 0.249733, 0.16
100, 0.324, 0.259467, 0.192
101, 0.356, 0.270533, 0.204
102, 0.356, 0.265467, 0.18
103, 0.34, 0.2676, 0.148
104, 0.324, 0.267467, 0.18
105, 0.316, 0.256267, 0.136
106, 0.308, 0.2596, 0.2
107, 0.34, 0.2616, 0.172
108, 0.34, 0.267467, 0.148
109, 0.344, 0.264133, 0.208
110, 0.316, 0.262533, 0.172
111, 0.32, 0.255733, 0.172
112, 0.336, 0.268533, 0.192
113, 0.336, 0.2628, 0.18
114, 0.336, 0.262, 0.188
115, 0.344, 0.2548, 0.188
116, 0.352, 0.266267, 0.2
117, 0.32, 0.2564, 0.176
118, 0.344, 0.27, 0.184
119, 0.312, 0.256933, 0.136
120, 0.376, 0.2648, 0.184
121, 0.32, 0.258, 0.184
122, 0.336, 0.2608, 0.168
123, 0.348, 0.259467, 0.196
124, 0.34, 0.263067, 0.184
125, 0.336, 0.268533, 0.192
126, 0.344, 0.2532, 0.14
127, 0.328, 0.265067, 0.184
128, 0.344, 0.263867, 0.212
129, 0.34, 0.273733, 0.196
130, 0.352, 0.2632, 0.204
131, 0.376, 0.2872, 0.184
132, 0.336, 0.264133, 0.192
133, 0.344, 0.270533, 0.212
134, 0.348, 0.2752, 0.196
135, 0.34, 0.275067, 0.196
136, 0.344, 0.2852, 0.204
137, 0.376, 0.295733, 0.208
138, 0.352, 0.2844, 0.2
139, 0.356, 0.272533, 0.188
140, 0.36, 0.284267, 0.204
141, 0.356, 0.279067, 0.204
142, 0.332, 0.286133, 0.2
143, 0.368, 0.289467, 0.24
144, 0.34, 0.272133, 0.16
145, 0.34, 0.284, 0.212
146, 0.352, 0.286933, 0.216
147, 0.364, 0.2856, 0.216
148, 0.356, 0.2912, 0.2
149, 0.364, 0.298267, 0.244
150, 0.364, 0.2944, 0.232
151, 0.356, 0.2968, 0.212
152, 0.344, 0.296, 0.228
153, 0.4, 0.2908, 0.224
154, 0.36, 0.294533, 0.236
155, 0.348, 0.289733, 0.232
156, 0.32, 0.272267, 0.156
157, 0.356, 0.2792, 0.188
158, 0.34, 0.285333, 0.204
159, 0.348, 0.2924, 0.22
160, 0.332, 0.275733, 0.18
161, 0.34, 0.281467, 0.22
162, 0.356, 0.289333, 0.196
163, 0.396, 0.2976, 0.228
164, 0.344, 0.294533, 0.2
165, 0.348, 0.284267, 0.224
166, 0.38, 0.296933, 0.236
167, 0.364, 0.3004, 0.232
168, 0.356, 0.293867, 0.228
169, 0.352, 0.2872, 0.232
170, 0.36, 0.294267, 0.228
171, 0.348, 0.292133, 0.22
172, 0.372, 0.291867, 0.224
173, 0.364, 0.297467, 0.224
174, 0.364, 0.292133, 0.22
175, 0.376, 0.297733, 0.232
176, 0.372, 0.295867, 0.212
177, 0.364, 0.294, 0.236
178, 0.372, 0.295733, 0.2
179, 0.376, 0.3016, 0.192
180, 0.352, 0.300933, 0.204
181, 0.368, 0.3028, 0.228
182, 0.412, 0.297867, 0.232
183, 0.36, 0.306667, 0.236
184, 0.372, 0.302133, 0.232
185, 0.352, 0.296, 0.224
186, 0.368, 0.293333, 0.244
187, 0.38, 0.3004, 0.148
188, 0.364, 0.3036, 0.24
189, 0.364, 0.3008, 0.232
190, 0.392, 0.3108, 0.228
191, 0.384, 0.315867, 0.24
192, 0.36, 0.308267, 0.212
193, 0.38, 0.299333, 0.216
194, 0.384, 0.303733, 0.24
195, 0.376, 0.308133, 0.22
196, 0.376, 0.308933, 0.26
197, 0.436, 0.307067, 0.2
198, 0.38, 0.3104, 0.264
199, 0.356, 0.303333, 0.228
200, 0.38, 0.3124, 0.252
201, 0.38, 0.3124, 0.2
202, 0.372, 0.320267, 0.244
203, 0.372, 0.313867, 0.256
204, 0.368, 0.308533, 0.224
205, 0.376, 0.3096, 0.256
206, 0.384, 0.308267, 0.22
207, 0.384, 0.314933, 0.248
208, 0.372, 0.3104, 0.224
209, 0.348, 0.304533, 0.248
210, 0.352, 0.3036, 0.24
211, 0.364, 0.305333, 0.236
212, 0.368, 0.297333, 0.216
213, 0.388, 0.3148, 0.196
214, 0.364, 0.308933, 0.248
215, 0.36, 0.301467, 0.244
216, 0.356, 0.288533, 0.196
217, 0.368, 0.306133, 0.24
218, 0.36, 0.3, 0.228
219, 0.372, 0.316, 0.212
220, 0.372, 0.285733, 0.172
221, 0.356, 0.303733, 0.224
222, 0.392, 0.3016, 0.22
223, 0.38, 0.310133, 0.2
224, 0.36, 0.281867, 0.148
225, 0.38, 0.306533, 0.196
226, 0.388, 0.3028, 0.232
227, 0.388, 0.2956, 0.212
228, 0.368, 0.311333, 0.232
229, 0.384, 0.306, 0.192
230, 0.392, 0.3092, 0.2
231, 0.36, 0.298, 0.228
232, 0.376, 0.309867, 0.248
233, 0.424, 0.308933, 0.208
234, 0.388, 0.3144, 0.252
235, 0.376, 0.300133, 0.232
236, 0.392, 0.309067, 0.252
237, 0.376, 0.316, 0.216
238, 0.36, 0.300667, 0.192
239, 0.4, 0.300533, 0.208
240, 0.38, 0.313467, 0.228
241, 0.384, 0.297467, 0.196
242, 0.356, 0.295333, 0.144
243, 0.388, 0.306667, 0.248
244, 0.38, 0.307067, 0.24
245, 0.36, 0.3088, 0.256
246, 0.396, 0.308667, 0.26
247, 0.412, 0.313733, 0.252
248, 0.408, 0.310667, 0.192
249, 0.412, 0.315467, 0.256
250, 0.364, 0.31, 0.22
251, 0.356, 0.3012, 0.184
252, 0.368, 0.307333, 0.24
253, 0.388, 0.305867, 0.204
254, 0.372, 0.3084, 0.224
255, 0.396, 0.312133, 0.224
256, 0.388, 0.308667, 0.228
257, 0.392, 0.310133, 0.24
258, 0.392, 0.3096, 0.236
259, 0.392, 0.310933, 0.216
260, 0.38, 0.3132, 0.232
261, 0.356, 0.302267, 0.244
262, 0.368, 0.3024, 0.216
263, 0.376, 0.3152, 0.228
264, 0.36, 0.304933, 0.22
265, 0.372, 0.3268, 0.264
266, 0.376, 0.306667, 0.172
267, 0.364, 0.304533, 0.244
268, 0.368, 0.3152, 0.192
269, 0.368, 0.3156, 0.252
270, 0.396, 0.3108, 0.252
271, 0.4, 0.305733, 0.212
272, 0.38, 0.297733, 0.22
273, 0.372, 0.298933, 0.204
274, 0.38, 0.311333, 0.236
275, 0.376, 0.312133, 0.232
276, 0.392, 0.321467, 0.228
277, 0.368, 0.305733, 0.24
278, 0.368, 0.308667, 0.236
279, 0.376, 0.3124, 0.232
280, 0.376, 0.2988, 0.22
281, 0.392, 0.312267, 0.244
282, 0.396, 0.310667, 0.22
283, 0.372, 0.327333, 0.268
284, 0.404, 0.3092, 0.252
285, 0.364, 0.3084, 0.26
286, 0.388, 0.313867, 0.164
287, 0.384, 0.318667, 0.228
288, 0.376, 0.3196, 0.252
289, 0.384, 0.320933, 0.232
290, 0.4, 0.317067, 0.26
291, 0.404, 0.3184, 0.212
292, 0.38, 0.3124, 0.224
293, 0.372, 0.3068, 0.224
294, 0.376, 0.311333, 0.264
295, 0.42, 0.326267, 0.26
296, 0.396, 0.324, 0.248
297, 0.364, 0.314933, 0.236
298, 0.376, 0.305067, 0.176
299, 0.38, 0.325867, 0.26
300, 0.408, 0.327467, 0.248
301, 0.38, 0.315333, 0.256
302, 0.38, 0.3252, 0.276
303, 0.376, 0.3096, 0.224
304, 0.368, 0.305333, 0.212
305, 0.384, 0.322267, 0.256
306, 0.388, 0.3208, 0.268
307, 0.396, 0.313733, 0.268
308, 0.408, 0.3152, 0.244
309, 0.404, 0.317467, 0.236
310, 0.372, 0.3156, 0.252
311, 0.376, 0.321467, 0.204
312, 0.424, 0.325333, 0.212
313, 0.412, 0.327333, 0.212
314, 0.384, 0.319333, 0.256
315, 0.388, 0.318, 0.256
316, 0.372, 0.3216, 0.236
317, 0.384, 0.322, 0.264
318, 0.416, 0.328, 0.244
319, 0.38, 0.3148, 0.228
320, 0.396, 0.322133, 0.248
321, 0.392, 0.3288, 0.264
322, 0.384, 0.3212, 0.276
323, 0.368, 0.330133, 0.288
324, 0.392, 0.3248, 0.24
325, 0.404, 0.3372, 0.288
326, 0.388, 0.321733, 0.248
327, 0.368, 0.328, 0.272
328, 0.392, 0.325733, 0.244
329, 0.408, 0.324267, 0.244
330, 0.384, 0.3092, 0.24
331, 0.408, 0.322667, 0.264
332, 0.38, 0.325867, 0.252
333, 0.396, 0.317467, 0.22
334, 0.38, 0.311067, 0.24
335, 0.396, 0.310533, 0.26
336, 0.384, 0.3116, 0.244
337, 0.4, 0.316, 0.26
338, 0.344, 0.305467, 0.224
339, 0.368, 0.305467, 0.208
340, 0.396, 0.309067, 0.252
341, 0.388, 0.307467, 0.252
342, 0.356, 0.306, 0.264
343, 0.356, 0.299867, 0.232
344, 0.36, 0.3128, 0.268
345, 0.364, 0.31, 0.204
346, 0.38, 0.315733, 0.256
347, 0.396, 0.3124, 0.248
348, 0.364, 0.3052, 0.256
349, 0.392, 0.308667, 0.248
350, 0.376, 0.309333, 0.244
351, 0.368, 0.311733, 0.248
352, 0.376, 0.3064, 0.244
353, 0.356, 0.3068, 0.228
354, 0.384, 0.3168, 0.26
355, 0.392, 0.3144, 0.248
356, 0.36, 0.304933, 0.176
357, 0.38, 0.32, 0.268
358, 0.368, 0.307867, 0.264
359, 0.384, 0.3124, 0.228
360, 0.36, 0.319733, 0.26
361, 0.36, 0.311067, 0.26
362, 0.348, 0.3044, 0.248
363, 0.36, 0.309467, 0.244
364, 0.368, 0.307333, 0.252
365, 0.368, 0.295733, 0.248
366, 0.396, 0.303333, 0.24
367, 0.356, 0.2964, 0.248
368, 0.348, 0.3028, 0.248
369, 0.388, 0.302133, 0.232
370, 0.364, 0.299733, 0.24
371, 0.38, 0.300533, 0.22
372, 0.412, 0.315467, 0.256
373, 0.38, 0.315467, 0.256
374, 0.4, 0.310667, 0.248
375, 0.38, 0.3212, 0.244
376, 0.4, 0.321333, 0.236
377, 0.408, 0.3248, 0.24
378, 0.384, 0.322, 0.26
379, 0.384, 0.3316, 0.24
380, 0.392, 0.3168, 0.268
381, 0.384, 0.3252, 0.268
382, 0.384, 0.314667, 0.26
383, 0.404, 0.3228, 0.26
384, 0.364, 0.322933, 0.224
385, 0.404, 0.325333, 0.272
386, 0.42, 0.3244, 0.244
387, 0.392, 0.316533, 0.252
388, 0.4, 0.329867, 0.264
389, 0.404, 0.3308, 0.232
390, 0.396, 0.3272, 0.272
391, 0.408, 0.325333, 0.228
392, 0.408, 0.322533, 0.268
393, 0.36, 0.313467, 0.248
394, 0.384, 0.321733, 0.26
395, 0.38, 0.3188, 0.28
396, 0.412, 0.322933, 0.224
397, 0.376, 0.306533, 0.236
398, 0.396, 0.313067, 0.212
399, 0.38, 0.3104, 0.236
400, 0.404, 0.308133, 0.228
401, 0.396, 0.3128, 0.22
402, 0.376, 0.314133, 0.252
403, 0.404, 0.3136, 0.244
404, 0.412, 0.319333, 0.224
405, 0.408, 0.315733, 0.244
406, 0.38, 0.318667, 0.252
407, 0.396, 0.330667, 0.276
408, 0.404, 0.3228, 0.272
409, 0.368, 0.314267, 0.26
410, 0.384, 0.336133, 0.276
411, 0.384, 0.318, 0.248
412, 0.372, 0.3164, 0.236
413, 0.408, 0.3312, 0.272
414, 0.368, 0.317067, 0.24
415, 0.396, 0.317067, 0.256
416, 0.392, 0.3268, 0.26
417, 0.408, 0.319467, 0.228
418, 0.388, 0.333333, 0.26
419, 0.376, 0.315333, 0.252
420, 0.368, 0.319867, 0.248
421, 0.376, 0.3292, 0.256
422, 0.356, 0.32, 0.256
423, 0.372, 0.3308, 0.26
424, 0.38, 0.322267, 0.232
425, 0.4, 0.330267, 0.276
426, 0.404, 0.328, 0.236
427, 0.364, 0.316533, 0.232
428, 0.392, 0.32, 0.24
429, 0.388, 0.324933, 0.224
430, 0.38, 0.323333, 0.252
431, 0.42, 0.3232, 0.188
432, 0.372, 0.318267, 0.244
433, 0.4, 0.325333, 0.252
434, 0.384, 0.326133, 0.24
435, 0.412, 0.333333, 0.252
436, 0.396, 0.332533, 0.26
437, 0.384, 0.324133, 0.256
438, 0.392, 0.3272, 0.252
439, 0.392, 0.3236, 0.232
440, 0.388, 0.317467, 0.256
441, 0.372, 0.319467, 0.252
442, 0.384, 0.321867, 0.26
443, 0.42, 0.324133, 0.216
444, 0.376, 0.3152, 0.2
445, 0.372, 0.320933, 0.26
446, 0.392, 0.3164, 0.216
447, 0.384, 0.316667, 0.236
448, 0.388, 0.325067, 0.252
449, 0.372, 0.304267, 0.212
450, 0.368, 0.310667, 0.232
451, 0.38, 0.3208, 0.256
452, 0.38, 0.314533, 0.256
453, 0.384, 0.32, 0.284
454, 0.384, 0.327333, 0.268
455, 0.38, 0.313333, 0.248
456, 0.368, 0.321067, 0.272
457, 0.432, 0.320533, 0.216
458, 0.384, 0.3184, 0.264
459, 0.396, 0.3168, 0.26
460, 0.38, 0.3204, 0.244
461, 0.392, 0.328133, 0.24
462, 0.396, 0.313067, 0.252
463, 0.404, 0.320667, 0.224
464, 0.376, 0.313333, 0.272
465, 0.384, 0.313467, 0.232
466, 0.384, 0.3136, 0.24
467, 0.388, 0.315733, 0.236
468, 0.364, 0.3116, 0.224
469, 0.396, 0.322, 0.256
470, 0.38, 0.310667, 0.252
471, 0.388, 0.312133, 0.24
472, 0.396, 0.311467, 0.228
473, 0.388, 0.327867, 0.26
474, 0.38, 0.308667, 0.236
475, 0.42, 0.3196, 0.252
476, 0.384, 0.324667, 0.268
477, 0.42, 0.325333, 0.2
478, 0.368, 0.314133, 0.2
479, 0.408, 0.326, 0.268
480, 0.36, 0.312133, 0.26
481, 0.384, 0.307733, 0.236
482, 0.404, 0.31, 0.236
483, 0.356, 0.310267, 0.236
484, 0.412, 0.3308, 0.276
485, 0.384, 0.324133, 0.24
486, 0.388, 0.3276, 0.256
487, 0.376, 0.3192, 0.264
488, 0.408, 0.3272, 0.244
489, 0.396, 0.335867, 0.272
490, 0.388, 0.331333, 0.264
491, 0.396, 0.326267, 0.26
492, 0.388, 0.319067, 0.228
493, 0.388, 0.323467, 0.236
494, 0.412, 0.318933, 0.232
495, 0.392, 0.335733, 0.26
496, 0.384, 0.329067, 0.276
497, 0.396, 0.326267, 0.24
498, 0.396, 0.325467, 0.272
499, 0.4, 0.326133, 0.244
500, 0.396, 0.334667, 0.26
501, 0.404, 0.3316, 0.272
502, 0.396, 0.342133, 0.288
503, 0.404, 0.3244, 0.244
504, 0.384, 0.319333, 0.256
505, 0.4, 0.338533, 0.26
506, 0.388, 0.329467, 0.276
507, 0.412, 0.322933, 0.256
508, 0.388, 0.322667, 0.236
509, 0.392, 0.328667, 0.236
510, 0.404, 0.328, 0.264
511, 0.412, 0.337333, 0.26
512, 0.388, 0.3244, 0.26
513, 0.384, 0.330533, 0.268
514, 0.4, 0.329867, 0.244
515, 0.364, 0.325867, 0.268
516, 0.384, 0.3356, 0.264
517, 0.428, 0.328133, 0.276
518, 0.404, 0.3292, 0.28
519, 0.396, 0.320267, 0.252
520, 0.408, 0.3252, 0.232
521, 0.44, 0.333067, 0.248
522, 0.4, 0.328267, 0.26
523, 0.388, 0.332133, 0.268
524, 0.384, 0.3276, 0.276
525, 0.38, 0.325867, 0.24
526, 0.404, 0.33, 0.264
527, 0.396, 0.332, 0.26
528, 0.368, 0.320533, 0.268
529, 0.384, 0.321467, 0.26
530, 0.408, 0.328667, 0.24
531, 0.404, 0.3212, 0.244
532, 0.384, 0.324533, 0.216
533, 0.4, 0.316933, 0.264
534, 0.4, 0.318533, 0.256
535, 0.388, 0.329333, 0.28
536, 0.412, 0.326933, 0.256
537, 0.388, 0.326533, 0.272
538, 0.384, 0.325067, 0.224
539, 0.392, 0.334267, 0.272
540, 0.4, 0.330667, 0.224
541, 0.436, 0.346, 0.232
542, 0.432, 0.3396, 0.256
543, 0.408, 0.341867, 0.28
544, 0.4, 0.326933, 0.212
545, 0.404, 0.3292, 0.248
546, 0.4, 0.3184, 0.252
547, 0.412, 0.3356, 0.264
548, 0.392, 0.328133, 0.268
549, 0.436, 0.3392, 0.284
550, 0.384, 0.326267, 0.244
551, 0.4, 0.3372, 0.28
552, 0.384, 0.331067, 0.252
553, 0.376, 0.3276, 0.204
554, 0.392, 0.326267, 0.236
555, 0.396, 0.329333, 0.256
556, 0.396, 0.335867, 0.252
557, 0.396, 0.327867, 0.224
558, 0.392, 0.3228, 0.26
559, 0.384, 0.315733, 0.232
560, 0.4, 0.3372, 0.284
561, 0.396, 0.332533, 0.264
562, 0.396, 0.3288, 0.264
563, 0.408, 0.3296, 0.252
564, 0.392, 0.3252, 0.236
565, 0.372, 0.322133, 0.232
566, 0.396, 0.3256, 0.228
567, 0.4, 0.333067, 0.28
568, 0.388, 0.334267, 0.248
569, 0.432, 0.338533, 0.288
570, 0.428, 0.3284, 0.264
571, 0.396, 0.3328, 0.248
572, 0.404, 0.331467, 0.26
573, 0.384, 0.3244, 0.244
574, 0.4, 0.339733, 0.272
575, 0.38, 0.3192, 0.264
576, 0.404, 0.3272, 0.252
577, 0.384, 0.337733, 0.276
578, 0.396, 0.3236, 0.236
579, 0.388, 0.334133, 0.26
580, 0.392, 0.333467, 0.284
581, 0.404, 0.332267, 0.284
582, 0.396, 0.3312, 0.24
583, 0.388, 0.340667, 0.288
584, 0.412, 0.340933, 0.28
585, 0.38, 0.326667, 0.26
586, 0.388, 0.320533, 0.212
587, 0.404, 0.339733, 0.2
588, 0.388, 0.34, 0.276
589, 0.42, 0.3368, 0.256
590, 0.4, 0.328533, 0.22
591, 0.376, 0.325067, 0.268
592, 0.392, 0.324267, 0.24
593, 0.424, 0.3332, 0.248
594, 0.416, 0.345333, 0.272
595, 0.408, 0.334, 0.172
596, 0.428, 0.346, 0.268
597, 0.416, 0.345867, 0.288
598, 0.404, 0.341333, 0.264
599, 0.384, 0.337733, 0.26
600, 0.412, 0.3276, 0.264
601, 0.412, 0.337733, 0.272
602, 0.412, 0.338133, 0.268
603, 0.408, 0.335333, 0.252
604, 0.404, 0.3276, 0.276
605, 0.388, 0.327333, 0.212
606, 0.388, 0.335733, 0.272
607, 0.408, 0.3356, 0.256
608, 0.404, 0.340933, 0.3
609, 0.404, 0.335467, 0.24
610, 0.412, 0.341867, 0.252
611, 0.412, 0.334533, 0.26
612, 0.392, 0.326933, 0.26
613, 0.412, 0.336, 0.28
614, 0.384, 0.331467, 0.276
615, 0.396, 0.339067, 0.268
616, 0.396, 0.3376, 0.252
617, 0.404, 0.3396, 0.28
618, 0.44, 0.339333, 0.236
619, 0.44, 0.350933, 0.3
620, 0.424, 0.345467, 0.268
621, 0.4, 0.343733, 0.28
622, 0.38, 0.331733, 0.288
623, 0.4, 0.332133, 0.264
624, 0.404, 0.326533, 0.276
625, 0.392, 0.3364, 0.272
626, 0.404, 0.336667, 0.284
627, 0.392, 0.331067, 0.272
628, 0.404, 0.333333, 0.272
629, 0.4, 0.331067, 0.284
630, 0.404, 0.336, 0.28
631, 0.404, 0.3468, 0.264
632, 0.4, 0.336667, 0.288
633, 0.404, 0.335467, 0.252
634, 0.4, 0.330267, 0.28
635, 0.392, 0.3396, 0.264
636, 0.416, 0.346267, 0.276
637, 0.42, 0.344267, 0.248
638, 0.396, 0.3436, 0.284
639, 0.412, 0.348267, 0.264
640, 0.388, 0.338933, 0.26
641, 0.4, 0.3468, 0.252
642, 0.416, 0.350267, 0.268
643, 0.388, 0.338, 0.292
644, 0.412, 0.344933, 0.248
645, 0.444, 0.33, 0.26
646, 0.404, 0.340533, 0.256
647, 0.396, 0.344, 0.268
648, 0.408, 0.3296, 0.288
649, 0.404, 0.337467, 0.268
650, 0.444, 0.340267, 0.264
651, 0.404, 0.334133, 0.288
652, 0.416, 0.339733, 0.28
653, 0.396, 0.343733, 0.268
654, 0.42, 0.35, 0.264
655, 0.436, 0.351333, 0.236
656, 0.416, 0.342667, 0.276
657, 0.416, 0.356933, 0.292
658, 0.408, 0.3552, 0.288
659, 0.396, 0.353333, 0.284
660, 0.416, 0.348267, 0.268
661, 0.436, 0.3396, 0.228
662, 0.408, 0.3396, 0.26
663, 0.404, 0.349067, 0.3
664, 0.392, 0.3444, 0.24
665, 0.4, 0.353867, 0.296
666, 0.4, 0.341067, 0.248
667, 0.44, 0.3468, 0.268
668, 0.416, 0.337467, 0.284
669, 0.432, 0.361467, 0.312
670, 0.396, 0.352267, 0.3
671, 0.412, 0.343333, 0.256
672, 0.428, 0.345333, 0.264
673, 0.424, 0.339867, 0.264
674, 0.392, 0.332933, 0.268
675, 0.44, 0.354, 0.268
676, 0.44, 0.352533, 0.276
677, 0.404, 0.346133, 0.28
678, 0.42, 0.344267, 0.252
679, 0.408, 0.3448, 0.28
680, 0.408, 0.347467, 0.3
681, 0.384, 0.340667, 0.276
682, 0.412, 0.346667, 0.272
683, 0.428, 0.3396, 0.28
684, 0.404, 0.345067, 0.292
685, 0.436, 0.353467, 0.296
686, 0.412, 0.3444, 0.232
687, 0.392, 0.3336, 0.244
688, 0.436, 0.347467, 0.288
689, 0.464, 0.330267, 0.228
690, 0.396, 0.329867, 0.252
691, 0.412, 0.3344, 0.26
692, 0.408, 0.342533, 0.272
693, 0.424, 0.352133, 0.276
694, 0.412, 0.340533, 0.296
695, 0.392, 0.336133, 0.26
696, 0.444, 0.354, 0.28
697, 0.428, 0.346, 0.236
698, 0.432, 0.359067, 0.272
699, 0.4, 0.3444, 0.26
700, 0.456, 0.345333, 0.276
701, 0.408, 0.350133, 0.3
702, 0.416, 0.354267, 0.268
703, 0.392, 0.356133, 0.296
704, 0.44, 0.354267, 0.3
705, 0.412, 0.353867, 0.304
706, 0.448, 0.362667, 0.292
707, 0.416, 0.359733, 0.272
708, 0.428, 0.353333, 0.288
709, 0.404, 0.3492, 0.236
710, 0.432, 0.362533, 0.284
711, 0.44, 0.356533, 0.264
712, 0.412, 0.352667, 0.296
713, 0.412, 0.354267, 0.316
714, 0.452, 0.364, 0.296
715, 0.428, 0.353067, 0.304
716, 0.416, 0.3492, 0.268
717, 0.452, 0.354667, 0.276
718, 0.412, 0.369467, 0.312
719, 0.448, 0.356933, 0.26
720, 0.444, 0.344133, 0.264
721, 0.412, 0.348533, 0.3
722, 0.404, 0.348133, 0.264
723, 0.416, 0.354533, 0.272
724, 0.428, 0.358267, 0.28
725, 0.412, 0.355467, 0.268
726, 0.424, 0.3564, 0.3
727, 0.416, 0.357067, 0.308
728, 0.424, 0.362, 0.292
729, 0.404, 0.354, 0.256
730, 0.42, 0.353067, 0.304
731, 0.416, 0.351467, 0.268
732, 0.392, 0.358, 0.3
733, 0.464, 0.364533, 0.268
734, 0.4, 0.3536, 0.284
735, 0.412, 0.364533, 0.28
736, 0.444, 0.368667, 0.316
737, 0.42, 0.372, 0.296
738, 0.436, 0.356533, 0.288
739, 0.444, 0.3656, 0.288
740, 0.42, 0.3616, 0.284
741, 0.428, 0.3712, 0.304
742, 0.416, 0.36, 0.292
743, 0.4, 0.353067, 0.28
744, 0.416, 0.3608, 0.272
745, 0.416, 0.3568, 0.292
746, 0.424, 0.368667, 0.316
747, 0.448, 0.374667, 0.304
748, 0.44, 0.363733, 0.284
749, 0.432, 0.355467, 0.276
750, 0.428, 0.3676, 0.312
751, 0.436, 0.366, 0.312
752, 0.424, 0.3624, 0.304
753, 0.428, 0.3584, 0.272
754, 0.428, 0.3488, 0.22
755, 0.412, 0.3476, 0.28
756, 0.404, 0.3668, 0.312
757, 0.452, 0.3712, 0.316
758, 0.416, 0.347733, 0.292
759, 0.408, 0.362267, 0.28
760, 0.424, 0.3672, 0.312
761, 0.444, 0.358267, 0.276
762, 0.452, 0.358133, 0.268
763, 0.448, 0.361467, 0.256
764, 0.456, 0.3536, 0.28
765, 0.416, 0.368267, 0.292
766, 0.464, 0.358, 0.272
767, 0.464, 0.355467, 0.288
768, 0.432, 0.3572, 0.276
769, 0.424, 0.361067, 0.312
770, 0.42, 0.358533, 0.296
771, 0.44, 0.348, 0.268
772, 0.444, 0.352533, 0.26
773, 0.436, 0.367467, 0.296
774, 0.48, 0.360667, 0.312
775, 0.44, 0.3592, 0.26
776, 0.396, 0.3596, 0.288
777, 0.396, 0.355733, 0.304
778, 0.432, 0.365867, 0.268
779, 0.432, 0.360933, 0.288
780, 0.408, 0.3492, 0.264
781, 0.408, 0.347467, 0.224
782, 0.42, 0.357467, 0.272
783, 0.428, 0.353333, 0.304
784, 0.404, 0.357733, 0.264
785, 0.432, 0.36, 0.272
786, 0.444, 0.356133, 0.256
787, 0.416, 0.361067, 0.296
788, 0.404, 0.350933, 0.3
789, 0.452, 0.359333, 0.256
790, 0.4, 0.3528, 0.296
791, 0.44, 0.359467, 0.284
792, 0.428, 0.3532, 0.28
793, 0.42, 0.354533, 0.296
794, 0.456, 0.360533, 0.256
795, 0.428, 0.361333, 0.28
796, 0.428, 0.359733, 0.284
797, 0.436, 0.364133, 0.296
798, 0.412, 0.3624, 0.296
799, 0.432, 0.368, 0.304
800, 0.444, 0.355733, 0.292
801, 0.444, 0.3696, 0.292
802, 0.432, 0.367467, 0.316
803, 0.432, 0.367733, 0.312
804, 0.396, 0.360933, 0.3
805, 0.444, 0.370667, 0.324
806, 0.432, 0.359067, 0.292
807, 0.428, 0.370533, 0.308
808, 0.416, 0.362133, 0.324
809, 0.44, 0.364933, 0.288
810, 0.432, 0.368133, 0.324
811, 0.432, 0.362933, 0.268
812, 0.428, 0.358, 0.292
813, 0.412, 0.353333, 0.224
814, 0.448, 0.364133, 0.268
815, 0.424, 0.373067, 0.316
816, 0.416, 0.364533, 0.312
817, 0.432, 0.357333, 0.276
818, 0.42, 0.3588, 0.296
819, 0.424, 0.362667, 0.304
820, 0.416, 0.361467, 0.28
821, 0.428, 0.3608, 0.3
822, 0.424, 0.3696, 0.296
823, 0.448, 0.3596, 0.288
824, 0.448, 0.369733, 0.308
825, 0.416, 0.3612, 0.3
826, 0.464, 0.368933, 0.316
827, 0.424, 0.3572, 0.288
828, 0.416, 0.36, 0.28
829, 0.432, 0.3676, 0.292
830, 0.448, 0.3616, 0.3
831, 0.452, 0.368667, 0.276
832, 0.424, 0.357867, 0.308
833, 0.404, 0.355467, 0.312
834, 0.42, 0.361467, 0.272
835, 0.456, 0.368267, 0.288
836, 0.396, 0.355467, 0.284
837, 0.424, 0.358133, 0.284
838, 0.42, 0.3604, 0.316
839, 0.4, 0.358667, 0.28
840, 0.416, 0.359733, 0.308
841, 0.404, 0.3524, 0.304
842, 0.412, 0.3544, 0.256
843, 0.424, 0.364667, 0.288
844, 0.436, 0.361867, 0.284
845, 0.444, 0.359867, 0.256
846, 0.44, 0.37, 0.304
847, 0.42, 0.360933, 0.312
848, 0.428, 0.369733, 0.32
849, 0.424, 0.3592, 0.272
850, 0.44, 0.3572, 0.304
851, 0.444, 0.3592, 0.268
852, 0.42, 0.3612, 0.272
853, 0.432, 0.363067, 0.3
854, 0.436, 0.359467, 0.284
855, 0.412, 0.358933, 0.296
856, 0.412, 0.351067, 0.292
857, 0.432, 0.360267, 0.288
858, 0.404, 0.349067, 0.264
859, 0.44, 0.356133, 0.304
860, 0.424, 0.351333, 0.292
861, 0.42, 0.355067, 0.296
862, 0.448, 0.364933, 0.288
863, 0.424, 0.3548, 0.296
864, 0.444, 0.366133, 0.308
865, 0.432, 0.341067, 0.236
866, 0.4, 0.334933, 0.264
867, 0.436, 0.349467, 0.26
868, 0.436, 0.358533, 0.3
869, 0.436, 0.369067, 0.292
870, 0.436, 0.3656, 0.3
871, 0.424, 0.3692, 0.316
872, 0.408, 0.356, 0.28
873, 0.404, 0.3544, 0.288
874, 0.412, 0.344, 0.276
875, 0.412, 0.35, 0.264
876, 0.424, 0.34, 0.288
877, 0.432, 0.351867, 0.296
878, 0.42, 0.339733, 0.236
879, 0.412, 0.355333, 0.276
880, 0.408, 0.351467, 0.208
881, 0.416, 0.348533, 0.26
882, 0.416, 0.338, 0.28
883, 0.4, 0.3484, 0.292
884, 0.404, 0.357733, 0.304
885, 0.4, 0.349333, 0.276
886, 0.424, 0.357733, 0.28
887, 0.404, 0.35, 0.296
888, 0.436, 0.3564, 0.304
889, 0.444, 0.359733, 0.292
890, 0.432, 0.356, 0.308
891, 0.432, 0.354267, 0.268
892, 0.44, 0.366, 0.284
893, 0.448, 0.355467, 0.284
894, 0.412, 0.358, 0.316
895, 0.404, 0.3544, 0.276
896, 0.412, 0.3556, 0.3
897, 0.424, 0.362133, 0.284
898, 0.416, 0.358533, 0.292
899, 0.42, 0.360667, 0.32
900, 0.416, 0.344267, 0.24
901, 0.456, 0.360933, 0.308
902, 0.436, 0.377733, 0.328
903, 0.424, 0.357733, 0.284
904, 0.416, 0.353467, 0.268
905, 0.42, 0.3632, 0.3
906, 0.432, 0.356933, 0.292
907, 0.448, 0.3612, 0.272
908, 0.44, 0.358533, 0.316
909, 0.42, 0.358267, 0.288
910, 0.432, 0.361733, 0.288
911, 0.416, 0.3552, 0.264
912, 0.416, 0.3612, 0.304
913, 0.42, 0.3664, 0.3
914, 0.408, 0.365867, 0.312
915, 0.42, 0.357333, 0.308
916, 0.424, 0.358667, 0.28
917, 0.42, 0.358533, 0.292
918, 0.46, 0.383067, 0.316
919, 0.44, 0.376933, 0.304
920, 0.432, 0.366, 0.324
921, 0.452, 0.3672, 0.288
922, 0.46, 0.362667, 0.296
923, 0.432, 0.373067, 0.3
924, 0.424, 0.367067, 0.316
925, 0.424, 0.364, 0.284
926, 0.416, 0.361067, 0.26
927, 0.424, 0.3664, 0.32
928, 0.452, 0.364133, 0.304
929, 0.44, 0.364933, 0.304
930, 0.416, 0.370933, 0.296
931, 0.428, 0.3724, 0.316
932, 0.436, 0.376667, 0.344
933, 0.44, 0.368133, 0.32
934, 0.416, 0.3708, 0.292
935, 0.46, 0.3752, 0.32
936, 0.448, 0.380267, 0.304
937, 0.416, 0.3676, 0.308
938, 0.428, 0.364533, 0.304
939, 0.444, 0.375067, 0.316
940, 0.44, 0.391467, 0.344
941, 0.408, 0.364667, 0.3
942, 0.432, 0.368, 0.296
943, 0.428, 0.367467, 0.292
944, 0.46, 0.379067, 0.324
945, 0.448, 0.3632, 0.248
946, 0.452, 0.382933, 0.316
947, 0.456, 0.385333, 0.312
948, 0.424, 0.3644, 0.308
949, 0.408, 0.359333, 0.296
950, 0.436, 0.376267, 0.32
951, 0.416, 0.366, 0.284
952, 0.444, 0.368533, 0.296
953, 0.424, 0.365867, 0.324
954, 0.48, 0.382667, 0.312
955, 0.424, 0.373333, 0.336
956, 0.44, 0.370533, 0.304
957, 0.452, 0.3628, 0.284
958, 0.416, 0.3732, 0.324
959, 0.444, 0.373333, 0.276
960, 0.424, 0.362, 0.292
961, 0.44, 0.369733, 0.304
962, 0.44, 0.373333, 0.312
963, 0.456, 0.378533, 0.328
964, 0.44, 0.363467, 0.296
965, 0.456, 0.358933, 0.292
966, 0.472, 0.3672, 0.304
967, 0.432, 0.370533, 0.316
968, 0.444, 0.367467, 0.304
969, 0.448, 0.3652, 0.276
970, 0.444, 0.3788, 0.336
971, 0.432, 0.3668, 0.268
972, 0.456, 0.378133, 0.276
973, 0.428, 0.370533, 0.284
974, 0.456, 0.374533, 0.288
975, 0.436, 0.379333, 0.312
976, 0.436, 0.381733, 0.344
977, 0.436, 0.370533, 0.304
978, 0.432, 0.372933, 0.32
979, 0.44, 0.386267, 0.316
980, 0.428, 0.3852, 0.324
981, 0.444, 0.388, 0.328
982, 0.432, 0.3872, 0.328
983, 0.452, 0.382267, 0.344
984, 0.424, 0.3708, 0.284
985, 0.428, 0.379333, 0.324
986, 0.432, 0.3712, 0.296
987, 0.444, 0.3764, 0.316
988, 0.424, 0.376667, 0.316
989, 0.444, 0.377467, 0.3
990, 0.428, 0.3728, 0.292
991, 0.448, 0.3804, 0.332
992, 0.44, 0.3768, 0.296
993, 0.416, 0.365067, 0.296
994, 0.46, 0.3732, 0.304
995, 0.436, 0.372267, 0.296
996, 0.424, 0.365067, 0.308
997, 0.448, 0.372, 0.304
998, 0.428, 0.362667, 0.32
999, 0.432, 0.369867, 0.296
