0, 0.228, 0.160933, 0.088
1, 0.216, 0.1684, 0.124
2, 0.256, 0.187333, 0.112
3, 0.244, 0.1808, 0.112
4, 0.244, 0.18, 0.132
5, 0.256, 0.1876, 0.116
6, 0.244, 0.1696, 0.112
7, 0.24, 0.1724, 0.104
8, 0.252, 0.184533, 0.128
9, 0.24, 0.180267, 0.112
10, 0.244, 0.1792, 0.116
11, 0.276, 0.181867, 0.128
12, 0.224, 0.1764, 0.128
13, 0.26, 0.188933, 0.14
14, 0.228, 0.187067, 0.132
15, 0.236, 0.186, 0.148
16, 0.272, 0.199067, 0.14
17, 0.256, 0.195333, 0.12
18, 0.244, 0.19, 0.14
19, 0.256, 0.188933, 0.136
20, 0.248, 0.186933, 0.092
21, 0.236, 0.1804, 0.14
22, 0.24, 0.182667, 0.124
23, 0.272, 0.1792, 0.108
24, 0.248, 0.186, 0.144
25, 0.28, 0.1876, 0.1
26, 0.256, 0.190533, 0.12
27, 0.308, 0.193867, 0.088
28, 0.276, 0.195067, 0.108
29, 0.28, 0.190533, 0.116
30, 0.256, 0.204133, 0.132
31, 0.252, 0.193733, 0.136
32, 0.268, 0.201867, 0.124
33, 0.268, 0.203067, 0.12
34, 0.268, 0.199467, 0.144
35, 0.284, 0.208133, 0.108
36, 0.272, 0.204267, 0.132
37, 0.272, 0.198, 0.112
38, 0.268, 0.2072, 0.136
39, 0.304, 0.217067, 0.144
40, 0.304, 0.227733, 0.144
41, 0.276, 0.221467, 0.176
42, 0.296, 0.216667, 0.168
43, 0.276, 0.208533, 0.144
44, 0.328, 0.222267, 0.14
45, 0.308, 0.229867, 0.164
46, 0.296, 0.2412, 0.156
47, 0.304, 0.230533, 0.132
48, 0.272, 0.2204, 0.168
49, 0.28, 0.2168, 0.148
50, 0.292, 0.224533, 0.168
51, 0.288, 0.219467, 0.132
52, 0.292, 0.214267, 0.12
53, 0.292, 0.217467, 0.148
54, 0.28, 0.218667, 0.14
55, 0.32, 0.224133, 0.168
56, 0.288, 0.227067, 0.164
57, 0.304, 0.222, 0.156
58, 0.28, 0.216667, 0.128
59, 0.3, 0.212933, 0.12
60, 0.28, 0.222267, 0.152
61, 0.28, 0.2216, 0.152
62, 0.332, 0.223067, 0.136
63, 0.292, 0.214933, 0.14
64, 0.312, 0.2248, 0.144
65, 0.34, 0.233733, 0.164
66, 0.312, 0.242133, 0.144
67, 0.32, 0.232267, 0.164
68, 0.3, 0.235333, 0.172
69, 0.312, 0.242133, 0.168
70, 0.304, 0.242267, 0.18
71, 0.32, 0.242267, 0.16
72, 0.352, 0.239867, 0.152
73, 0.328, 0.250267, 0.176
74, 0.324, 0.254133, 0.172
75, 0.32, 0.249733, 0.16
76, 0.316, 0.239067, 0.172
77, 0.32, 0.2548, 0.2
78, 0.3, 0.239867, 0.144
79, 0.32, 0.242133, 0.16
80, 0.312, 0.246667, 0.188
81, 0.296, 0.247733, 0.176
82, 0.3, 0.2432, 0.184
83, 0.332, 0.246133, 0.156
84, 0.332, 0.256, 0.164
85, 0.336, 0.2448, 0.156
86, 0.316, 0.254667, 0.18
87, 0.328, 0.237067, 0.188
88, 0.348, 0.243067, 0.168
89, 0.32, 0.24, 0.152
90, 0.328, 0.257467, 0.16
91, 0.288, 0.2424, 0.172
92, 0.312, 0.248667, 0.132
93, 0.308, 0.239733, 0.144
94, 0.352, 0.251467, 0.148
95, 0.356, 0.266133, 0.2
96, 0.336, 0.260133, 0.196
97, 0.32, 0.256267, 0.196
98, 0.308, 0.259467, 0.208
99, 0.332, 0.254533, 0.152
100, 0.348, 0.2648, 0.212
101, 0.336, 0.264533, 0.16
102, 0.336, 0.273067, 0.212
103, 0.368, 0.2832, 0.172
104, 0.328, 0.286667, 0.216
105, 0.368, 0.2784, 0.184
106, 0.38, 0.280267, 0.16
107, 0.356, 0.276667, 0.2
108, 0.364, 0.277333, 0.196
109, 0.364, 0.29, 0.22
110, 0.368, 0.304, 0.236
111, 0.376, 0.305867, 0.236
112, 0.388, 0.302933, 0.212
113, 0.4, 0.305067, 0.204
114, 0.344, 0.292133, 0.236
115, 0.364, 0.2956, 0.188
116, 0.4, 0.298267, 0.212
117, 0.364, 0.306, 0.2
118, 0.352, 0.29, 0.212
119, 0.38, 0.307333, 0.188
120, 0.38, 0.3028, 0.2
121, 0.38, 0.303733, 0.172
122, 0.376, 0.3, 0.208
123, 0.356, 0.301467, 0.216
124, 0.364, 0.2976, 0.224
125, 0.404, 0.311467, 0.232
126, 0.384, 0.300933, 0.22
127, 0.376, 0.3004, 0.228
128, 0.368, 0.3016, 0.228
129, 0.392, 0.311467, 0.216
130, 0.392, 0.3008, 0.18
131, 0.36, 0.3132, 0.22
132, 0.376, 0.306267, 0.244
133, 0.368, 0.305733, 0.184
134, 0.392, 0.3132, 0.232
135, 0.368, 0.299867, 0.212
136, 0.376, 0.310133, 0.228
137, 0.348, 0.303867, 0.244
138, 0.38, 0.295733, 0.212
139, 0.392, 0.291333, 0.176
140, 0.396, 0.302133, 0.22
141, 0.396, 0.315867, 0.248
142, 0.384, 0.3116, 0.224
143, 0.408, 0.305067, 0.236
144, 0.388, 0.315733, 0.212
145, 0.388, 0.330667, 0.272
146, 0.392, 0.324667, 0.252
147, 0.412, 0.316267, 0.24
148, 0.384, 0.316667, 0.244
149, 0.396, 0.3244, 0.204
150, 0.424, 0.3352, 0.248
151, 0.432, 0.3404, 0.252
152, 0.408, 0.333733, 0.24
153, 0.416, 0.336533, 0.264
154, 0.412, 0.3228, 0.24
155, 0.396, 0.336933, 0.236
156, 0.432, 0.337867, 0.244
157, 0.412, 0.340267, 0.276
158, 0.412, 0.331733, 0.236
159, 0.416, 0.342933, 0.216
160, 0.4, 0.3168, 0.184
161, 0.396, 0.318933, 0.212
162, 0.4, 0.3268, 0.224
163, 0.412, 0.332533, 0.248
164, 0.408, 0.3376, 0.232
165, 0.4, 0.3268, 0.204
166, 0.384, 0.3308, 0.244
167, 0.388, 0.323333, 0.248
168, 0.4, 0.3192, 0.22
169, 0.408, 0.327467, 0.252
170, 0.424, 0.338933, 0.276
171, 0.416, 0.321333, 0.228
172, 0.364, 0.305733, 0.2
173, 0.388, 0.328267, 0.236
174, 0.46, 0.338667, 0.236
175, 0.408, 0.318533, 0.252
176, 0.416, 0.3316, 0.232
177, 0.4, 0.330667, 0.228
178, 0.4, 0.339467, 0.188
179, 0.376, 0.323467, 0.24
180, 0.4, 0.3416, 0.26
181, 0.416, 0.338533, 0.244
182, 0.408, 0.344267, 0.248
183, 0.408, 0.349733, 0.3
184, 0.416, 0.328933, 0.244
185, 0.404, 0.334533, 0.24
186, 0.432, 0.334, 0.2
187, 0.404, 0.333467, 0.22
188, 0.42, 0.327333, 0.204
189, 0.416, 0.3472, 0.26
190, 0.412, 0.3368, 0.216
191, 0.432, 0.358933, 0.312
192, 0.392, 0.338933, 0.276
193, 0.392, 0.3408, 0.208
194, 0.412, 0.3476, 0.284
195, 0.44, 0.3328, 0.204
196, 0.392, 0.332667, 0.216
197, 0.444, 0.326, 0.204
198, 0.392, 0.332533, 0.208
199, 0.424, 0.332933, 0.272
200, 0.424, 0.336533, 0.24
201, 0.416, 0.349333, 0.292
202, 0.424, 0.348267, 0.244
203, 0.404, 0.330933, 0.212
204, 0.4, 0.3264, 0.16
205, 0.428, 0.3384, 0.264
206, 0.42, 0.346133, 0.276
207, 0.412, 0.342667, 0.28
208, 0.42, 0.334933, 0.256
209, 0.388, 0.330267, 0.276
210, 0.388, 0.327333, 0.244
211, 0.408, 0.340267, 0.208
212, 0.396, 0.334533, 0.256
213, 0.412, 0.347067, 0.276
214, 0.396, 0.335067, 0.22
215, 0.436, 0.345733, 0.296
216, 0.412, 0.348667, 0.252
217, 0.416, 0.351333, 0.232
218, 0.428, 0.346933, 0.288
219, 0.432, 0.357333, 0.264
220, 0.504, 0.364, 0.272
221, 0.448, 0.352667, 0.28
222, 0.436, 0.366533, 0.304
223, 0.448, 0.360667, 0.268
224, 0.404, 0.3492, 0.284
225, 0.444, 0.3604, 0.276
226, 0.44, 0.364, 0.288
227, 0.424, 0.352133, 0.252
228, 0.412, 0.3624, 0.3
229, 0.4, 0.356267, 0.28
230, 0.412, 0.352933, 0.3
231, 0.424, 0.3492, 0.26
232, 0.436, 0.363467, 0.296
233, 0.452, 0.354133, 0.244
234, 0.428, 0.347867, 0.288
235, 0.412, 0.350267, 0.196
236, 0.42, 0.346133, 0.288
237, 0.42, 0.355867, 0.304
238, 0.416, 0.346133, 0.252
239, 0.42, 0.335867, 0.22
240, 0.46, 0.350933, 0.264
241, 0.424, 0.328667, 0.2
242, 0.4, 0.339733, 0.272
243, 0.412, 0.338933, 0.26
244, 0.408, 0.339067, 0.244
245, 0.412, 0.3464, 0.288
246, 0.404, 0.349733, 0.256
247, 0.416, 0.348667, 0.248
248, 0.4, 0.3376, 0.268
249, 0.424, 0.351067, 0.292
250, 0.432, 0.339467, 0.216
251, 0.432, 0.337733, 0.248
252, 0.42, 0.344133, 0.204
253, 0.424, 0.341333, 0.244
254, 0.44, 0.3536, 0.272
255, 0.4, 0.329467, 0.152
256, 0.428, 0.349467, 0.268
257, 0.412, 0.338533, 0.228
258, 0.408, 0.342267, 0.252
259, 0.412, 0.349333, 0.236
260, 0.408, 0.346667, 0.232
261, 0.448, 0.3412, 0.268
262, 0.388, 0.3344, 0.228
263, 0.392, 0.334133, 0.168
264, 0.428, 0.34, 0.2
265, 0.428, 0.3512, 0.256
266, 0.4, 0.35, 0.264
267, 0.392, 0.334133, 0.228
268, 0.428, 0.343067, 0.276
269, 0.452, 0.3604, 0.304
270, 0.452, 0.368533, 0.304
271, 0.484, 0.3568, 0.2
272, 0.404, 0.350667, 0.272
273, 0.444, 0.37, 0.288
274, 0.404, 0.336267, 0.22
275, 0.404, 0.3568, 0.264
276, 0.404, 0.354, 0.28
277, 0.444, 0.361867, 0.276
278, 0.432, 0.351867, 0.236
279, 0.452, 0.355067, 0.26
280, 0.42, 0.363333, 0.26
281, 0.452, 0.368, 0.28
282, 0.444, 0.371467, 0.296
283, 0.404, 0.3504, 0.288
284, 0.396, 0.339067, 0.272
285, 0.464, 0.373333, 0.268
286, 0.44, 0.366133, 0.264
287, 0.448, 0.351333, 0.212
288, 0.448, 0.357067, 0.212
289, 0.42, 0.3572, 0.3
290, 0.416, 0.363733, 0.288
291, 0.432, 0.353867, 0.248
292, 0.456, 0.354, 0.272
293, 0.428, 0.3596, 0.256
294, 0.46, 0.370667, 0.256
295, 0.428, 0.354933, 0.232
296, 0.428, 0.3572, 0.268
297, 0.464, 0.359067, 0.252
298, 0.46, 0.366, 0.292
299, 0.44, 0.357333, 0.208
300, 0.44, 0.3668, 0.292
301, 0.424, 0.358, 0.26
302, 0.46, 0.357333, 0.228
303, 0.42, 0.3572, 0.22
304, 0.424, 0.348667, 0.236
305, 0.432, 0.362267, 0.212
306, 0.452, 0.362667, 0.256
307, 0.452, 0.353067, 0.26
308, 0.456, 0.366533, 0.288
309, 0.452, 0.3836, 0.268
310, 0.444, 0.359333, 0.2
311, 0.432, 0.3736, 0.308
312, 0.428, 0.361867, 0.26
313, 0.432, 0.3588, 0.212
314, 0.412, 0.352933, 0.192
315, 0.456, 0.362933, 0.272
316, 0.44, 0.376133, 0.276
317, 0.444, 0.353867, 0.236
318, 0.46, 0.358667, 0.24
319, 0.44, 0.3668, 0.272
320, 0.452, 0.359467, 0.256
321, 0.416, 0.3696, 0.296
322, 0.42, 0.3536, 0.276
323, 0.424, 0.354933, 0.248
324, 0.432, 0.358533, 0.196
325, 0.432, 0.3616, 0.252
326, 0.428, 0.353333, 0.232
327, 0.436, 0.367733, 0.284
328, 0.42, 0.352933, 0.252
329, 0.424, 0.368, 0.212
330, 0.48, 0.358, 0.24
331, 0.428, 0.351867, 0.22
332, 0.432, 0.356933, 0.26
333, 0.42, 0.3468, 0.252
334, 0.432, 0.360533, 0.284
335, 0.424, 0.356933, 0.264
336, 0.416, 0.356, 0.252
337, 0.408, 0.3516, 0.224
338, 0.44, 0.3716, 0.248
339, 0.444, 0.367733, 0.304
340, 0.44, 0.367467, 0.236
341, 0.428, 0.368667, 0.264
342, 0.444, 0.371733, 0.272
343, 0.432, 0.362133, 0.272
344, 0.444, 0.349733, 0.212
345, 0.44, 0.363733, 0.28
346, 0.432, 0.344267, 0.228
347, 0.456, 0.342667, 0.232
348, 0.42, 0.362, 0.284
349, 0.44, 0.368, 0.272
350, 0.436, 0.351733, 0.228
351, 0.484, 0.357333, 0.264
352, 0.432, 0.369067, 0.272
353, 0.424, 0.364933, 0.276
354, 0.428, 0.352533, 0.272
355, 0.432, 0.3636, 0.272
356, 0.444, 0.366, 0.264
357, 0.452, 0.372667, 0.288
358, 0.44, 0.3572, 0.256
359, 0.436, 0.360667, 0.28
360, 0.444, 0.370667, 0.26
361, 0.444, 0.361733, 0.236
362, 0.436, 0.354933, 0.248
363, 0.456, 0.370933, 0.3
364, 0.408, 0.3664, 0.312
365, 0.448, 0.366, 0.288
366, 0.436, 0.371333, 0.3
367, 0.448, 0.361333, 0.264
368, 0.416, 0.376933, 0.304
369, 0.464, 0.3812, 0.316
370, 0.432, 0.369067, 0.26
371, 0.436, 0.372133, 0.292
372, 0.464, 0.378667, 0.316
373, 0.444, 0.383333, 0.316
374, 0.444, 0.368933, 0.296
375, 0.452, 0.386133, 0.316
376, 0.436, 0.382, 0.328
377, 0.46, 0.386267, 0.336
378, 0.432, 0.3848, 0.28
379, 0.456, 0.3864, 0.312
380, 0.452, 0.3744, 0.3
381, 0.452, 0.373467, 0.316
382, 0.452, 0.384667, 0.268
383, 0.488, 0.384133, 0.212
384, 0.48, 0.376, 0.292
385, 0.464, 0.3852, 0.328
386, 0.448, 0.390133, 0.324
387, 0.44, 0.378933, 0.24
388, 0.464, 0.379467, 0.288
389, 0.468, 0.3792, 0.304
390, 0.476, 0.388267, 0.312
391, 0.44, 0.376133, 0.276
392, 0.448, 0.380933, 0.304
393, 0.448, 0.377867, 0.312
394, 0.46, 0.39, 0.344
395, 0.452, 0.3772, 0.268
396, 0.448, 0.369867, 0.264
397, 0.46, 0.3928, 0.252
398, 0.448, 0.388533, 0.304
399, 0.448, 0.396133, 0.328
400, 0.436, 0.3748, 0.268
401, 0.416, 0.374267, 0.276
402, 0.436, 0.376667, 0.32
403, 0.484, 0.402, 0.304
404, 0.456, 0.399467, 0.324
405, 0.456, 0.396133, 0.24
406, 0.48, 0.3988, 0.256
407, 0.492, 0.400533, 0.332
408, 0.496, 0.406, 0.352
409, 0.492, 0.397733, 0.292
410, 0.468, 0.3968, 0.344
411, 0.524, 0.406133, 0.34
412, 0.48, 0.399733, 0.296
413, 0.46, 0.392667, 0.332
414, 0.476, 0.398533, 0.296
415, 0.468, 0.3968, 0.276
416, 0.456, 0.399067, 0.312
417, 0.476, 0.402267, 0.316
418, 0.508, 0.394, 0.244
419, 0.476, 0.392133, 0.308
420, 0.46, 0.3916, 0.324
421, 0.484, 0.409867, 0.344
422, 0.476, 0.411067, 0.348
423, 0.476, 0.403067, 0.336
424, 0.484, 0.407867, 0.288
425, 0.472, 0.406, 0.292
426, 0.492, 0.4128, 0.34
427, 0.532, 0.401733, 0.3
428, 0.484, 0.4124, 0.332
429, 0.476, 0.4032, 0.272
430, 0.488, 0.412267, 0.32
431, 0.496, 0.4172, 0.304
432, 0.552, 0.412533, 0.312
433, 0.492, 0.400667, 0.292
434, 0.492, 0.402667, 0.22
435, 0.456, 0.403333, 0.308
436, 0.476, 0.413467, 0.356
437, 0.476, 0.402267, 0.324
438, 0.484, 0.411333, 0.32
439, 0.476, 0.404533, 0.36
440, 0.484, 0.398933, 0.272
441, 0.476, 0.398267, 0.316
442, 0.456, 0.403333, 0.336
443, 0.48, 0.405467, 0.316
444, 0.46, 0.395067, 0.324
445, 0.492, 0.407067, 0.332
446, 0.468, 0.403733, 0.232
447, 0.46, 0.402, 0.308
448, 0.496, 0.409867, 0.324
449, 0.476, 0.398133, 0.252
450, 0.5, 0.396133, 0.292
451, 0.48, 0.4056, 0.332
452, 0.468, 0.419467, 0.348
453, 0.472, 0.401467, 0.292
454, 0.476, 0.3988, 0.308
455, 0.484, 0.4096, 0.36
456, 0.5, 0.410133, 0.336
457, 0.504, 0.417067, 0.284
458, 0.452, 0.4016, 0.3
459, 0.464, 0.415333, 0.332
460, 0.456, 0.4024, 0.324
461, 0.46, 0.414533, 0.312
462, 0.476, 0.400267, 0.352
463, 0.488, 0.4048, 0.352
464, 0.46, 0.4116, 0.36
465, 0.508, 0.405067, 0.332
466, 0.472, 0.421333, 0.356
467, 0.492, 0.417467, 0.352
468, 0.484, 0.406, 0.328
469, 0.456, 0.397867, 0.344
470, 0.48, 0.398533, 0.316
471, 0.48, 0.401733, 0.316
472, 0.48, 0.397733, 0.3
473, 0.48, 0.398533, 0.316
474, 0.464, 0.386267, 0.32
475, 0.46, 0.403867, 0.32
476, 0.476, 0.4116, 0.356
477, 0.504, 0.406, 0.36
478, 0.484, 0.407733, 0.308
479, 0.468, 0.411867, 0.308
480, 0.48, 0.411733, 0.288
481, 0.484, 0.407867, 0.308
482, 0.484, 0.418933, 0.328
483, 0.5, 0.412133, 0.344
484, 0.488, 0.41, 0.324
485, 0.48, 0.404, 0.34
486, 0.488, 0.410133, 0.344
487, 0.5, 0.409333, 0.324
488, 0.456, 0.388, 0.256
489, 0.488, 0.413333, 0.352
490, 0.448, 0.399733, 0.336
491, 0.464, 0.390267, 0.312
492, 0.48, 0.409733, 0.332
493, 0.476, 0.4108, 0.336
494, 0.476, 0.393867, 0.212
495, 0.48, 0.411467, 0.324
496, 0.492, 0.4024, 0.336
497, 0.484, 0.410133, 0.34
498, 0.46, 0.3864, 0.288
499, 0.464, 0.399067, 0.332
500, 0.5, 0.402533, 0.336
501, 0.456, 0.4004, 0.292
502, 0.5, 0.4016, 0.312
503, 0.48, 0.414267, 0.352
504, 0.48, 0.4044, 0.3
505, 0.48, 0.403333, 0.288
506, 0.488, 0.4052, 0.28
507, 0.48, 0.417733, 0.34
508, 0.508, 0.421467, 0.36
509, 0.512, 0.403067, 0.288
510, 0.464, 0.410667, 0.332
511, 0.472, 0.414667, 0.344
512, 0.504, 0.417733, 0.364
513, 0.468, 0.410667, 0.264
514, 0.492, 0.3968, 0.28
515, 0.488, 0.402667, 0.276
516, 0.484, 0.398267, 0.216
517, 0.472, 0.4036, 0.26
518, 0.508, 0.397333, 0.284
519, 0.472, 0.396933, 0.252
520, 0.492, 0.4064, 0.284
521, 0.508, 0.414, 0.324
522, 0.464, 0.4076, 0.336
523, 0.468, 0.396267, 0.324
524, 0.484, 0.401733, 0.284
525, 0.468, 0.397467, 0.292
526, 0.484, 0.395067, 0.316
527, 0.46, 0.406533, 0.248
528, 0.5, 0.4136, 0.328
529, 0.48, 0.404667, 0.348
530, 0.496, 0.4112, 0.308
531, 0.5, 0.4156, 0.36
532, 0.48, 0.415333, 0.348
533, 0.472, 0.408667, 0.32
534, 0.476, 0.399733, 0.284
535, 0.48, 0.423067, 0.352
536, 0.48, 0.3968, 0.232
537, 0.484, 0.409067, 0.324
538, 0.512, 0.414267, 0.312
539, 0.492, 0.408267, 0.348
540, 0.492, 0.405733, 0.348
541, 0.472, 0.4208, 0.356
542, 0.476, 0.427467, 0.372
543, 0.484, 0.4188, 0.304
544, 0.492, 0.416533, 0.304
545, 0.488, 0.418133, 0.336
546, 0.492, 0.424533, 0.376
547, 0.464, 0.420133, 0.352
548, 0.524, 0.416667, 0.364
549, 0.488, 0.418933, 0.34
550, 0.472, 0.422133, 0.368
551, 0.48, 0.415067, 0.36
552, 0.508, 0.424533, 0.364
553, 0.5, 0.420667, 0.364
554, 0.48, 0.4184, 0.368
555, 0.484, 0.428, 0.364
556, 0.488, 0.421067, 0.364
557, 0.48, 0.421733, 0.344
558, 0.456, 0.410667, 0.368
559, 0.472, 0.423867, 0.344
560, 0.488, 0.4032, 0.288
561, 0.48, 0.414533, 0.296
562, 0.492, 0.416933, 0.328
563, 0.496, 0.417733, 0.336
564, 0.492, 0.431733, 0.352
565, 0.532, 0.423333, 0.22
566, 0.488, 0.401867, 0.332
567, 0.468, 0.410133, 0.352
568, 0.496, 0.4184, 0.34
569, 0.472, 0.4148, 0.34
570, 0.46, 0.4188, 0.352
571, 0.476, 0.4, 0.332
572, 0.476, 0.413733, 0.332
573, 0.504, 0.421067, 0.328
574, 0.52, 0.4188, 0.34
575, 0.476, 0.407333, 0.34
576, 0.476, 0.416533, 0.344
577, 0.476, 0.419733, 0.364
578, 0.456, 0.4056, 0.34
579, 0.524, 0.3888, 0.296
580, 0.476, 0.394, 0.328
581, 0.484, 0.409467, 0.352
582, 0.488, 0.4124, 0.36
583, 0.48, 0.406533, 0.36
584, 0.488, 0.3968, 0.296
585, 0.468, 0.401333, 0.288
586, 0.492, 0.413733, 0.36
587, 0.472, 0.396667, 0.312
588, 0.484, 0.404267, 0.348
589, 0.492, 0.4016, 0.332
590, 0.5, 0.410667, 0.336
591, 0.488, 0.404533, 0.232
592, 0.504, 0.415333, 0.332
593, 0.472, 0.411333, 0.34
594, 0.484, 0.4188, 0.348
595, 0.48, 0.402133, 0.316
596, 0.48, 0.4044, 0.28
597, 0.472, 0.4108, 0.36
598, 0.484, 0.406267, 0.252
599, 0.476, 0.406267, 0.344
600, 0.456, 0.403733, 0.32
601, 0.476, 0.4084, 0.252
602, 0.468, 0.409467, 0.3
603, 0.476, 0.413467, 0.344
604, 0.464, 0.408933, 0.356
605, 0.464, 0.404133, 0.312
606, 0.472, 0.409333, 0.308
607, 0.448, 0.405867, 0.344
608, 0.472, 0.402933, 0.28
609, 0.492, 0.407467, 0.352
610, 0.512, 0.405867, 0.328
611, 0.492, 0.41, 0.352
612, 0.512, 0.421867, 0.36
613, 0.488, 0.4228, 0.332
614, 0.476, 0.412133, 0.324
615, 0.488, 0.422, 0.324
616, 0.472, 0.416, 0.34
617, 0.472, 0.411467, 0.34
618, 0.488, 0.424267, 0.324
619, 0.48, 0.418667, 0.352
620, 0.492, 0.413333, 0.216
621, 0.484, 0.422133, 0.368
622, 0.464, 0.4096, 0.28
623, 0.476, 0.409333, 0.28
624, 0.468, 0.4144, 0.348
625, 0.464, 0.4028, 0.224
626, 0.496, 0.403867, 0.264
627, 0.5, 0.4096, 0.22
628, 0.484, 0.394, 0.228
629, 0.472, 0.4048, 0.284
630, 0.496, 0.403067, 0.252
631, 0.48, 0.42, 0.224
632, 0.488, 0.404933, 0.312
633, 0.468, 0.4092, 0.316
634, 0.48, 0.419467, 0.356
635, 0.468, 0.4004, 0.316
636, 0.504, 0.410933, 0.34
637, 0.504, 0.407067, 0.344
638, 0.456, 0.412133, 0.304
639, 0.472, 0.4124, 0.348
640, 0.472, 0.400933, 0.26
641, 0.452, 0.4016, 0.236
642, 0.472, 0.406, 0.332
643, 0.488, 0.416667, 0.34
644, 0.456, 0.399733, 0.304
645, 0.52, 0.399867, 0.244
646, 0.456, 0.406, 0.336
647, 0.472, 0.4004, 0.272
648, 0.46, 0.406267, 0.216
649, 0.472, 0.411467, 0.32
650, 0.488, 0.4048, 0.336
651, 0.496, 0.406133, 0.34
652, 0.48, 0.411733, 0.328
653, 0.48, 0.403333, 0.296
654, 0.476, 0.420267, 0.34
655, 0.5, 0.4104, 0.328
656, 0.476, 0.401467, 0.332
657, 0.468, 0.3912, 0.22
658, 0.476, 0.404267, 0.276
659, 0.48, 0.408267, 0.348
660, 0.5, 0.415333, 0.324
661, 0.492, 0.4032, 0.32
662, 0.488, 0.407867, 0.34
663, 0.468, 0.400933, 0.292
664, 0.484, 0.406533, 0.292
665, 0.496, 0.404, 0.32
666, 0.456, 0.398, 0.32
667, 0.492, 0.408133, 0.212
668, 0.472, 0.4016, 0.34
669, 0.464, 0.411067, 0.34
670, 0.5, 0.414533, 0.304
671, 0.48, 0.415867, 0.356
672, 0.476, 0.413333, 0.34
673, 0.488, 0.410267, 0.28
674, 0.472, 0.4108, 0.36
675, 0.484, 0.408533, 0.312
676, 0.472, 0.4132, 0.316
677, 0.472, 0.417067, 0.368
678, 0.476, 0.4088, 0.348
679, 0.48, 0.3992, 0.328
680, 0.456, 0.402667, 0.34
681, 0.464, 0.3948, 0.288
682, 0.492, 0.409467, 0.34
683, 0.444, 0.411333, 0.352
684, 0.452, 0.405467, 0.36
685, 0.468, 0.4104, 0.292
686, 0.484, 0.4216, 0.34
687, 0.456, 0.41, 0.344
688, 0.472, 0.402667, 0.308
689, 0.452, 0.4096, 0.296
690, 0.472, 0.410667, 0.304
691, 0.456, 0.405867, 0.324
692, 0.492, 0.414133, 0.316
693, 0.48, 0.405867, 0.316
694, 0.496, 0.412667, 0.364
695, 0.48, 0.404533, 0.336
696, 0.476, 0.397867, 0.336
697, 0.46, 0.403867, 0.34
698, 0.504, 0.389467, 0.264
699, 0.492, 0.404667, 0.284
700, 0.468, 0.407733, 0.332
701, 0.496, 0.403067, 0.324
702, 0.472, 0.396, 0.324
703, 0.472, 0.398533, 0.328
704, 0.464, 0.399467, 0.276
705, 0.484, 0.405467, 0.344
706, 0.464, 0.413467, 0.34
707, 0.488, 0.403067, 0.316
708, 0.476, 0.4168, 0.36
709, 0.476, 0.412667, 0.324
710, 0.496, 0.418133, 0.316
711, 0.488, 0.4164, 0.34
712, 0.472, 0.416267, 0.364
713, 0.468, 0.412533, 0.34
714, 0.48, 0.418933, 0.364
715, 0.492, 0.411067, 0.324
716, 0.48, 0.410133, 0.32
717, 0.496, 0.420267, 0.344
718, 0.492, 0.412267, 0.268
719, 0.472, 0.4064, 0.3
720, 0.5, 0.420133, 0.32
721, 0.472, 0.408533, 0.328
722, 0.496, 0.4184, 0.316
723, 0.496, 0.413333, 0.284
724, 0.492, 0.4092, 0.336
725, 0.456, 0.410133, 0.36
726, 0.464, 0.4168, 0.352
727, 0.472, 0.404933, 0.336
728, 0.516, 0.404267, 0.272
729, 0.472, 0.4124, 0.356
730, 0.48, 0.4148, 0.364
731, 0.484, 0.4088, 0.308
732, 0.468, 0.403333, 0.296
733, 0.484, 0.402, 0.308
734, 0.46, 0.423067, 0.328
735, 0.476, 0.416533, 0.32
736, 0.468, 0.4108, 0.336
737, 0.492, 0.406133, 0.32
738, 0.492, 0.412133, 0.292
739, 0.5, 0.4204, 0.344
740, 0.468, 0.4112, 0.352
741, 0.48, 0.409333, 0.304
742, 0.472, 0.4092, 0.336
743, 0.54, 0.412533, 0.308
744, 0.484, 0.4072, 0.308
745, 0.444, 0.4064, 0.356
746, 0.476, 0.4096, 0.34
747, 0.484, 0.407467, 0.348
748, 0.444, 0.395467, 0.316
749, 0.464, 0.411333, 0.352
750, 0.492, 0.407467, 0.296
751, 0.508, 0.4116, 0.352
752, 0.476, 0.406, 0.316
753, 0.484, 0.412267, 0.368
754, 0.468, 0.405467, 0.348
755, 0.48, 0.408133, 0.328
756, 0.476, 0.415733, 0.324
757, 0.452, 0.406667, 0.352
758, 0.476, 0.4048, 0.34
759, 0.484, 0.395333, 0.316
760, 0.516, 0.411067, 0.332
761, 0.476, 0.4132, 0.336
762, 0.468, 0.408133, 0.344
763, 0.496, 0.4232, 0.372
764, 0.476, 0.414, 0.32
765, 0.52, 0.420267, 0.332
766, 0.524, 0.4304, 0.368
767, 0.484, 0.415867, 0.336
768, 0.5, 0.4272, 0.328
769, 0.476, 0.4216, 0.38
770, 0.48, 0.425733, 0.348
771, 0.484, 0.4284, 0.36
772, 0.488, 0.4244, 0.368
773, 0.48, 0.3956, 0.312
774, 0.484, 0.415467, 0.352
775, 0.476, 0.414533, 0.32
776, 0.456, 0.4204, 0.348
777, 0.468, 0.423733, 0.34
778, 0.5, 0.431067, 0.396
779, 0.472, 0.4196, 0.352
780, 0.5, 0.430267, 0.376
781, 0.528, 0.437333, 0.372
782, 0.492, 0.418533, 0.264
783, 0.504, 0.420133, 0.284
784, 0.488, 0.428267, 0.372
785, 0.48, 0.422, 0.34
786, 0.468, 0.4236, 0.36
787, 0.476, 0.425333, 0.372
788, 0.496, 0.414133, 0.34
789, 0.492, 0.420933, 0.304
790, 0.512, 0.4176, 0.292
791, 0.488, 0.4156, 0.332
792, 0.488, 0.412267, 0.332
793, 0.512, 0.4236, 0.352
794, 0.504, 0.4244, 0.352
795, 0.48, 0.432133, 0.332
796, 0.512, 0.424533, 0.368
797, 0.484, 0.4248, 0.324
798, 0.496, 0.42, 0.328
799, 0.496, 0.425467, 0.336
800, 0.528, 0.417867, 0.328
801, 0.488, 0.417867, 0.276
802, 0.48, 0.427333, 0.38
803, 0.52, 0.417333, 0.348
804, 0.472, 0.415467, 0.356
805, 0.472, 0.422667, 0.36
806, 0.492, 0.430267, 0.364
807, 0.48, 0.433333, 0.34
808, 0.524, 0.427333, 0.348
809, 0.464, 0.4188, 0.368
810, 0.488, 0.414533, 0.356
811, 0.48, 0.4172, 0.356
812, 0.48, 0.4068, 0.276
813, 0.508, 0.4304, 0.356
814, 0.496, 0.421733, 0.304
815, 0.496, 0.409067, 0.264
816, 0.476, 0.408933, 0.316
817, 0.488, 0.417067, 0.304
818, 0.504, 0.427467, 0.368
819, 0.472, 0.417467, 0.372
820, 0.488, 0.4268, 0.316
821, 0.508, 0.420533, 0.344
822, 0.484, 0.419467, 0.32
823, 0.488, 0.4236, 0.376
824, 0.48, 0.4272, 0.364
825, 0.492, 0.420533, 0.316
826, 0.476, 0.426533, 0.256
827, 0.512, 0.4448, 0.376
828, 0.496, 0.418, 0.22
829, 0.472, 0.4176, 0.348
830, 0.496, 0.426, 0.356
831, 0.508, 0.432, 0.38
832, 0.528, 0.423333, 0.312
833, 0.492, 0.4164, 0.336
834, 0.496, 0.429067, 0.384
835, 0.496, 0.4252, 0.372
836, 0.488, 0.4204, 0.344
837, 0.512, 0.422933, 0.352
838, 0.492, 0.427333, 0.364
839, 0.496, 0.4252, 0.376
840, 0.512, 0.43, 0.336
841, 0.468, 0.419467, 0.34
842, 0.548, 0.4228, 0.352
843, 0.512, 0.4168, 0.372
844, 0.468, 0.413333, 0.344
845, 0.484, 0.420533, 0.348
846, 0.492, 0.422, 0.344
847, 0.48, 0.415333, 0.352
848, 0.48, 0.417333, 0.348
849, 0.496, 0.4148, 0.352
850, 0.496, 0.4108, 0.264
851, 0.528, 0.4324, 0.356
852, 0.5, 0.428667, 0.344
853, 0.48, 0.430133, 0.372
854, 0.464, 0.419733, 0.352
855, 0.48, 0.415867, 0.288
856, 0.476, 0.41, 0.296
857, 0.508, 0.418133, 0.268
858, 0.5, 0.424267, 0.336
859, 0.484, 0.412933, 0.34
860, 0.496, 0.414267, 0.256
861, 0.472, 0.4248, 0.36
862, 0.488, 0.419067, 0.32
863, 0.508, 0.420267, 0.32
864, 0.484, 0.417067, 0.284
865, 0.504, 0.438267, 0.392
866, 0.52, 0.423733, 0.32
867, 0.516, 0.406267, 0.28
868, 0.492, 0.435733, 0.388
869, 0.488, 0.414267, 0.3
870, 0.488, 0.4272, 0.364
871, 0.5, 0.430133, 0.348
872, 0.484, 0.432267, 0.376
873, 0.516, 0.430133, 0.372
874, 0.484, 0.424133, 0.36
875, 0.504, 0.4364, 0.348
876, 0.464, 0.4176, 0.348
877, 0.508, 0.4304, 0.376
878, 0.488, 0.427067, 0.356
879, 0.516, 0.4284, 0.316
880, 0.528, 0.4268, 0.348
881, 0.528, 0.409867, 0.304
882, 0.5, 0.435733, 0.32
883, 0.504, 0.4216, 0.304
884, 0.5, 0.411333, 0.28
885, 0.46, 0.410133, 0.264
886, 0.496, 0.414267, 0.268
887, 0.488, 0.418667, 0.364
888, 0.484, 0.412667, 0.304
889, 0.488, 0.4184, 0.316
890, 0.492, 0.428667, 0.34
891, 0.492, 0.418667, 0.316
892, 0.5, 0.43, 0.364
893, 0.504, 0.425867, 0.348
894, 0.468, 0.416267, 0.34
895, 0.488, 0.416933, 0.352
896, 0.48, 0.427333, 0.376
897, 0.536, 0.436, 0.368
898, 0.504, 0.428267, 0.364
899, 0.492, 0.440267, 0.36
900, 0.516, 0.438667, 0.384
901, 0.496, 0.432933, 0.38
902, 0.5, 0.4172, 0.264
903, 0.468, 0.423467, 0.34
904, 0.496, 0.4196, 0.272
905, 0.488, 0.428933, 0.296
906, 0.476, 0.426, 0.304
907, 0.468, 0.4308, 0.372
908, 0.504, 0.422267, 0.348
909, 0.48, 0.423067, 0.352
910, 0.472, 0.424533, 0.312
911, 0.48, 0.424, 0.364
912, 0.492, 0.428133, 0.376
913, 0.476, 0.4184, 0.328
914, 0.504, 0.437867, 0.328
915, 0.488, 0.424133, 0.372
916, 0.528, 0.410667, 0.256
917, 0.472, 0.4168, 0.352
918, 0.504, 0.409867, 0.336
919, 0.496, 0.4264, 0.3
920, 0.508, 0.4152, 0.336
921, 0.484, 0.423467, 0.292
922, 0.484, 0.415867, 0.28
923, 0.484, 0.424267, 0.312
924, 0.508, 0.414933, 0.288
925, 0.512, 0.411333, 0.308
926, 0.476, 0.416933, 0.312
927, 0.488, 0.4172, 0.356
928, 0.476, 0.432533, 0.384
929, 0.488, 0.415467, 0.272
930, 0.472, 0.4156, 0.336
931, 0.52, 0.420133, 0.348
932, 0.532, 0.428533, 0.284
933, 0.528, 0.4228, 0.316
934, 0.484, 0.420533, 0.36
935, 0.492, 0.420133, 0.348
936, 0.512, 0.4192, 0.264
937, 0.476, 0.415333, 0.276
938, 0.492, 0.422267, 0.364
939, 0.488, 0.419067, 0.32
940, 0.504, 0.418267, 0.344
941, 0.476, 0.42, 0.34
942, 0.488, 0.413333, 0.348
943, 0.496, 0.411067, 0.288
944, 0.484, 0.421067, 0.34
945, 0.508, 0.420667, 0.356
946, 0.484, 0.427067, 0.368
947, 0.476, 0.4156, 0.364
948, 0.496, 0.423867, 0.352
949, 0.488, 0.421867, 0.288
950, 0.472, 0.4204, 0.308
951, 0.476, 0.414933, 0.324
952, 0.48, 0.412933, 0.332
953, 0.516, 0.413467, 0.268
954, 0.5, 0.424533, 0.284
955, 0.48, 0.422133, 0.376
956, 0.492, 0.428933, 0.292
957, 0.5, 0.431467, 0.376
958, 0.512, 0.419733, 0.312
959, 0.488, 0.419867, 0.364
960, 0.476, 0.430533, 0.356
961, 0.472, 0.420667, 0.332
962, 0.484, 0.4284, 0.352
963, 0.528, 0.4276, 0.308
964, 0.472, 0.422133, 0.364
965, 0.5, 0.431867, 0.336
966, 0.484, 0.416, 0.344
967, 0.516, 0.4224, 0.364
968, 0.512, 0.422533, 0.34
969, 0.5, 0.423467, 0.352
970, 0.496, 0.432533, 0.38
971, 0.5, 0.437867, 0.376
972, 0.492, 0.434, 0.36
973, 0.484, 0.436133, 0.344
974, 0.492, 0.436133, 0.36
975, 0.492, 0.430533, 0.356
976, 0.488, 0.436533, 0.376
977, 0.484, 0.4248, 0.348
978, 0.532, 0.435067, 0.332
979, 0.488, 0.429333, 0.328
980, 0.5, 0.424267, 0.328
981, 0.504, 0.428933, 0.352
982, 0.488, 0.426133, 0.36
983, 0.508, 0.4208, 0.344
984, 0.492, 0.423467, 0.304
985, 0.468, 0.433067, 0.356
986, 0.492, 0.431467, 0.372
987, 0.484, 0.429067, 0.348
988, 0.484, 0.421867, 0.264
989, 0.532, 0.4344, 0.384
990, 0.476, 0.4148, 0.34
991, 0.452, 0.412133, 0.316
992, 0.496, 0.417467, 0.32
993, 0.48, 0.420133, 0.384
994, 0.508, 0.426933, 0.36
995, 0.492, 0.4144, 0.352
996, 0.492, 0.4256, 0.332
997, 0.48, 0.409467, 0.372
998, 0.476, 0.415733, 0.344
999, 0.492, 0.4324, 0.32
